﻿Date,MDTag,Result,Player,Total Distance (m),Total Duration,High Speed Distance (m),Total Player Load
27/06/2016,MD -1,L,James Jones,6683.71997,98,237.81,713.90115
27/06/2016,MD -1,L,Carl Stewart,4243.2251,64,22.16,394.74083
27/06/2016,MD -1,L,Robbie Brooks,3732.81641,59,252.38,390.32312
27/06/2016,MD -1,L,Carl Yates,4592.30713,65,267.70999,418.89507
27/06/2016,MD -1,L,Kevin Marcus,4365.47949,70,143,435.37632
27/06/2016,MD -1,L,Ricardo Alvo,3329.72144,59,131.23,298.87946
27/06/2016,MD -1,L,Algo Sanchez,4823.46,61.76,442.58,0
27/06/2016,MD -1,L,Kimchee Jones,10007.33398,145,646.59,1114.97803
27/06/2016,MD -1,L,Michael Vikram,5521.38135,98,47.49,501.96193
27/06/2016,MD -1,L,Jimmy Ball,3625.38037,59,42.45,416.76218
27/06/2016,MD -1,L,Jeff Cordon,4013.13721,65,140.55999,419.26617
27/06/2016,MD -1,L,Mark Tim,3818.32813,72,98.07,421.71344
27/06/2016,MD -1,L,Kim Khoo,4310.72592,65,175.54,469.00907
27/06/2016,MD -1,L,Kyle Lee,6038.7251,98,156.13,654.8768
27/06/2016,MD -1,L,Kent Butcher,6023.81494,98,51.72,704.98633
27/06/2016,MD -1,L,Romeo Nathan ,3593.73535,59,77.65,416.05804
27/06/2016,MD -1,L,Kamani Kole,9991.24414,145,645.59997,1253.60181
27/06/2016,MD -1,L,Frank Ray,4412.50684,59,292.74001,409.57227
27/06/2016,MD -1,L,Steve Reid,3989.02652,67,100.86,366.10619
28/06/2016,MD,L,Adam James,4955.06201,41,628.92999,435.03461
28/06/2016,MD,L,James Jones,4641.57471,72,198.17,678.20953
28/06/2016,MD,L,Carl Stewart,12786.99707,98,750,0
28/06/2016,MD,L,Robbie Brooks,4129.18994,37,341.81,0
28/06/2016,MD,L,Carl Yates,10780.45654,98,849.60999,0
28/06/2016,MD,L,Kevin Marcus,1409.08008,10,569.25999,119.7844
28/06/2016,MD,L,Ricardo Alvo,7706.18726,63,854.52998,0
28/06/2016,MD,L,Algo Sanchez,3308.01,55.99,26.21,0
28/06/2016,MD,L,Kimchee Jones,5150.54736,72,335.61001,537.83862
28/06/2016,MD,L,Michael Vikram,2948.74219,29,822.93002,236.09929
28/06/2016,MD,L,Jimmy Ball,12415.6748,98,975.49001,0
28/06/2016,MD,L,Jeff Cordon,7063.87769,61,725.39998,0
28/06/2016,MD,L,Mark Tim,11354.32178,98,1120.09,0
28/06/2016,MD,L,Kim Khoo,10572.20898,83,813.85999,0
28/06/2016,MD,L,Kyle Lee,6320.21875,72,907.78003,623.87183
28/06/2016,MD,L,Romeo Nathan ,10679.19336,98,569.86,0
28/06/2016,MD,L,Kamani Kole,5404.97607,72,294.77999,688.44733
28/06/2016,MD,L,Frank Ray,11841.47656,98,934.03001,0
28/06/2016,MD,L,Simon Farrow,4010.79712,37,665.12998,420.91885
28/06/2016,MD,L,Steve Reid,11111.30713,98,803.19002,0
1/07/2016,MD -1,L,Adam James,5612.65039,62,838.07001,544.42242
1/07/2016,MD -1,L,James Jones,5279.58838,75,269.9,524.651
1/07/2016,MD -1,L,Carl Stewart,3076.71313,55,114.02,286.32162
1/07/2016,MD -1,L,Robbie Brooks,3646.26144,62,111.18,389.77688
1/07/2016,MD -1,L,Carl Yates,4012.92578,71,181.83,385.70781
1/07/2016,MD -1,L,Kevin Marcus,3918.12231,71,126.56,398.64182
1/07/2016,MD -1,L,Ricardo Alvo,3168.29053,63,80.85,290.18425
1/07/2016,MD -1,L,Algo Sanchez,4615.27,80.15,113.74,0
1/07/2016,MD -1,L,Kimchee Jones,5028.5752,75,260.13,571.14954
1/07/2016,MD -1,L,Michael Vikram,3710.0896,66,115.07,322.74031
1/07/2016,MD -1,L,Jimmy Ball,3076.71313,55,114.02,286.32162
1/07/2016,MD -1,L,Jeff Cordon,3944.40662,71,76.78,376.92619
1/07/2016,MD -1,L,Mark Tim,3536.31073,71,120.92,408.14045
1/07/2016,MD -1,L,Kim Khoo,3489.53418,75,73.62,359.52234
1/07/2016,MD -1,L,Kyle Lee,2898.89722,55,67.85,280.189
1/07/2016,MD -1,L,Kent Butcher,3000.68726,55,67.8,309.23181
1/07/2016,MD -1,L,Romeo Nathan ,4274.53271,71,169.77001,470.39584
1/07/2016,MD -1,L,Kamani Kole,4984.0376,75,76.39,558.38123
1/07/2016,MD -1,L,Frank Ray,3091.22803,55,139.18,303.77399
1/07/2016,MD -1,L,Simon Farrow,3112.67627,43,594.85,382.18387
1/07/2016,MD -1,L,Steve Reid,2737.28516,55,64.08,239.71101
2/07/2016,MD,L,James Jones,11909.98853,93,1095.09,1132.39951
2/07/2016,MD,L,Carl Stewart,914.32788,8,253.38,92.97704
2/07/2016,MD,L,Robbie Brooks,11828.32617,95,1022.87,0
2/07/2016,MD,L,Carl Yates,11457.25146,95,593.23,0
2/07/2016,MD,L,Kevin Marcus,11983.5542,88,905.43002,0
2/07/2016,MD,L,Ricardo Alvo,12269.84814,95,1496.35003,0
2/07/2016,MD,L,Algo Sanchez,4742.4175,76.2,332.42,0
2/07/2016,MD,L,Kimchee Jones,10521.92651,85,813.64999,1041.71463
2/07/2016,MD,L,Michael Vikram,11279.59131,95,573.28,0
2/07/2016,MD,L,Jeff Cordon,11341.54541,95,1035.87999,0
2/07/2016,MD,L,Mark Tim,3061.24365,23,328.12,0
2/07/2016,MD,L,Kim Khoo,8845.34595,62,626.26999,0
2/07/2016,MD,L,Romeo Nathan ,12596.69434,95,544.98001,0
2/07/2016,MD,L,Kamani Kole,10942.58813,93,799.33,1122.79237
2/07/2016,MD,L,Frank Ray,4342.34863,33,442.69999,0
2/07/2016,MD,L,Steve Reid,11656.00684,95,702.08,0
4/07/2016,MD -1,W,James Jones,4351.35547,81,74.38,514.07141
4/07/2016,MD -1,W,Carl Stewart,1468.14917,32,18.13,144.76471
4/07/2016,MD -1,W,Robbie Brooks,1531.90833,32,0,170.41187
4/07/2016,MD -1,W,Carl Yates,1431.14526,32,4.3,146.29294
4/07/2016,MD -1,W,Kevin Marcus,1394.75916,32,4.04,149.96628
4/07/2016,MD -1,W,Ricardo Alvo,1464.15271,32,4.53,145.70686
4/07/2016,MD -1,W,Kimchee Jones,3918.39917,81,194.26,451.72458
4/07/2016,MD -1,W,Michael Vikram,1484.86145,32,7.41,129.31848
4/07/2016,MD -1,W,Jimmy Ball,1600.06897,32,20.53,202.28058
4/07/2016,MD -1,W,Jeff Cordon,1355.5155,32,0,138.76598
4/07/2016,MD -1,W,Mark Tim,1899.60754,41,9.44,244.08069
4/07/2016,MD -1,W,Kim Khoo,1682.55208,34,6.86,186.9456
4/07/2016,MD -1,W,Kent Butcher,2745.95459,45,2.96,300.64565
4/07/2016,MD -1,W,Romeo Nathan ,1558.83582,32,0,185.29303
4/07/2016,MD -1,W,Kamani Kole,4598.23926,81,202.27,579.42468
4/07/2016,MD -1,W,Simon Farrow,1854.09323,38,14.27,198.32467
4/07/2016,MD -1,W,Steve Reid,1456.6781,32,5,131.36615
5/07/2016,MD,W,Adam James,5409.00391,53,879.35998,580.89465
5/07/2016,MD,W,James Jones,6589.90771,94,222.62,769.40204
5/07/2016,MD,W,Carl Stewart,12291.8208,96,776.27,0
5/07/2016,MD,W,Robbie Brooks,10726.146,96,1039.06,0
5/07/2016,MD,W,Carl Yates,11031.31885,96,921.52999,0
5/07/2016,MD,W,Ben Roggers,5505.12207,54,767.90002,587.43622
5/07/2016,MD,W,Kevin Marcus,11941.87207,94,1232.34996,0
5/07/2016,MD,W,Ricardo Alvo,1496.26111,13,582.44998,172.05827
5/07/2016,MD,W,Algo Sanchez,1482.7,22.67,164.79,0
5/07/2016,MD,W,Kimchee Jones,6254.32031,107,61.84,698.14734
5/07/2016,MD,W,Jimmy Ball,12266.54492,96,971.89001,0
5/07/2016,MD,W,Jeff Cordon,1771.2179,16,463.99,158.89244
5/07/2016,MD,W,Mark Tim,10089.05664,88,990.98,0
5/07/2016,MD,W,Kim Khoo,8404.52808,67,849.24,0
5/07/2016,MD,W,Kent Butcher,6746.0791,107,729.05,794.32806
5/07/2016,MD,W,Romeo Nathan ,10295.27783,96,490.61999,0
5/07/2016,MD,W,Kamani Kole,6140.8125,99,647.20999,782.13568
5/07/2016,MD,W,Frank Ray,3482.8125,29,337.86001,0
5/07/2016,MD,W,Simon Farrow,11133.78271,96,1065.67999,0
5/07/2016,MD,W,Steve Reid,10323.02002,96,601.91001,0
12/07/2016,MD -1,L,Adam James,3184.18628,42,344.67001,353.04584
12/07/2016,MD -1,L,Carl Stewart,2350.48804,39,96.29,231.77301
12/07/2016,MD -1,L,Robbie Brooks,2660.07782,45,89.26,290.96317
12/07/2016,MD -1,L,Carl Yates,2661.89063,50,63.29,261.58684
12/07/2016,MD -1,L,Ben Roggers,3926.45581,48,347.17999,505.57535
12/07/2016,MD -1,L,Kevin Marcus,2143.86108,34,82.58,217.12027
12/07/2016,MD -1,L,Ricardo Alvo,2361.66434,47,12.42,227.15423
12/07/2016,MD -1,L,Algo Sanchez,2965.6,21.79,0,0
12/07/2016,MD -1,L,Michael Vikram,1671.61011,34,45.82,148.55502
12/07/2016,MD -1,L,Jimmy Ball,2012.45825,34,45.99,240.96747
12/07/2016,MD -1,L,Jeff Cordon,2003.16016,34,66.83,194.13879
12/07/2016,MD -1,L,Mark Tim,2605.25311,50,66.17,305.99396
12/07/2016,MD -1,L,Kim Khoo,2968.81128,62,144.65,322.05495
12/07/2016,MD -1,L,Kyle Lee,4684.28931,72,118.01,463.76697
12/07/2016,MD -1,L,Kent Butcher,4368.49609,72,171.32,506.35492
12/07/2016,MD -1,L,Romeo Nathan ,3039.41235,54,88.54,353.89422
12/07/2016,MD -1,L,Frank Ray,1954.97461,34,63.28,199.17796
12/07/2016,MD -1,L,Steve Reid,2502.854,46,46.94,229.58307
13/07/2016,MD,L,Adam James,4003.67725,52,36.91,401.80722
13/07/2016,MD,L,Carl Stewart,12263.16553,96,701.57001,0
13/07/2016,MD,L,Robbie Brooks,8259.50513,68,565.86001,0
13/07/2016,MD,L,Carl Yates,10732.69189,96,861.88999,0
13/07/2016,MD,L,Ben Roggers,5564.5415,66,43.86,678.98621
13/07/2016,MD,L,Kevin Marcus,8669.10571,68,881.22,0
13/07/2016,MD,L,Ricardo Alvo,11267.61865,96,1357.81,0
13/07/2016,MD,L,Michael Vikram,1819.41199,15,606.42002,128.79416
13/07/2016,MD,L,Jeff Cordon,10547.76465,96,979.89001,0
13/07/2016,MD,L,Mark Tim,11415.11865,96,1095.60002,0
13/07/2016,MD,L,Kim Khoo,12180.97656,96,1083.83001,0
13/07/2016,MD,L,Kyle Lee,6391.15039,84,620.63999,646.28882
13/07/2016,MD,L,Kent Butcher,5151.62549,66,64.93,558.66852
13/07/2016,MD,L,Romeo Nathan ,8513.92334,83,542.42,0
13/07/2016,MD,L,Kamani Kole,7463.43896,105,803.82002,875.69733
13/07/2016,MD,L,Frank Ray,4312.79175,40,641.33,124.9719
13/07/2016,MD,L,Steve Reid,10289.12793,96,639.17001,0
22/07/2016,MD -5,L,Adam James,8416.20801,102,671.05001,859.82611
22/07/2016,MD -5,L,James Jones,11022.91113,113,655.41,1070.56396
22/07/2016,MD -5,L,Carl Stewart,8654.26074,102,183.83,892.16498
22/07/2016,MD -5,L,Carl Yates,8138.76953,102,454.5,776.33838
22/07/2016,MD -5,L,Ben Roggers,1307.71619,15,172.71001,138.18188
22/07/2016,MD -5,L,Kevin Marcus,8384.16992,102,564.39001,830.125
22/07/2016,MD -5,L,Ricardo Alvo,7778.39648,102,485.05999,760.87335
22/07/2016,MD -5,L,Algo Sanchez,3887.39575,44,75.47,344.21439
22/07/2016,MD -5,L,Ravi Goopal,9919.77051,119,247.5,1027.30865
22/07/2016,MD -5,L,Michael Vikram,7240.09521,95,211.09999,654.18347
22/07/2016,MD -5,L,Jimmy Ball,8601.94238,102,381.09001,1005.99127
22/07/2016,MD -5,L,Jeff Cordon,8384.16992,102,564.39001,830.125
22/07/2016,MD -5,L,Mark Tim,7622.88818,102,455.41001,833.96405
22/07/2016,MD -5,L,Kim Khoo,5473.62012,73,332.6,643.44702
22/07/2016,MD -5,L,Kyle Lee,8319.63477,102,245.40001,833.85797
22/07/2016,MD -5,L,Kent Butcher,11099.60449,113,633.34002,1064.95117
22/07/2016,MD -5,L,Romeo Nathan ,7808.41846,102,149.05,877.68152
22/07/2016,MD -5,L,Kamani Kole,10624.16602,113,443.68001,1238.9447
22/07/2016,MD -5,L,Frank Ray,8945.99609,102,555.21,1034.15479
22/07/2016,MD -5,L,Steve Reid,7614.19727,102,224,768.33698
23/07/2016,MD -4,L,Adam James,7709.09052,104,480.47999,823.67346
23/07/2016,MD -4,L,Carl Stewart,7042.49463,93,27.01,704.64935
23/07/2016,MD -4,L,Robbie Brooks,5444.95215,63,763.34002,587.13525
23/07/2016,MD -4,L,Carl Yates,6856.19873,93,366.59999,668.85516
23/07/2016,MD -4,L,Ben Roggers,5775.53857,72,29.42,652.99805
23/07/2016,MD -4,L,Kevin Marcus,6349.03711,93,363.15001,632.72559
23/07/2016,MD -4,L,Ricardo Alvo,6878.62988,93,369.09999,670.70801
23/07/2016,MD -4,L,Michael Vikram,7101.19598,104,155.39,630.32543
23/07/2016,MD -4,L,Jeff Cordon,6395.17432,93,311.96999,645.03271
23/07/2016,MD -4,L,Mark Tim,5957.75439,93,236.34001,664.40979
23/07/2016,MD -4,L,Kyle Lee,6820.34033,93,30.11,669.62756
23/07/2016,MD -4,L,Romeo Nathan ,6263.80322,93,137.84,720.42914
23/07/2016,MD -4,L,Frank Ray,6538.68848,97,453.37002,659.9782
23/07/2016,MD -4,L,Steve Reid,6195.33789,93,309.55,574.71027
25/07/2016,MD -2,L,Adam James,2774.36206,47,155.05,293.72552
25/07/2016,MD -2,L,Carl Stewart,2989.27759,57,41.99,297.86884
25/07/2016,MD -2,L,Robbie Brooks,5334.73584,76,675.84001,613.32593
25/07/2016,MD -2,L,Carl Yates,3622.08838,61,107.98,341.31533
25/07/2016,MD -2,L,Ben Roggers,3293.21881,57,54.94,350.61374
25/07/2016,MD -2,L,Kevin Marcus,2999.86108,52,130.61,307.23914
25/07/2016,MD -2,L,Ricardo Alvo,3982.83508,70,133.22,358.22409
25/07/2016,MD -2,L,Algo Sanchez,2950.64819,30,183.50999,301.36581
25/07/2016,MD -2,L,Kimchee Jones,8315.95605,115,536.87002,893.36664
25/07/2016,MD -2,L,Michael Vikram,3149.84766,62,52.27,268.27739
25/07/2016,MD -2,L,Jeff Cordon,3284.75629,61,57.47,335.96063
25/07/2016,MD -2,L,Mark Tim,3499.22998,61,54.77,427.84692
25/07/2016,MD -2,L,Kim Khoo,3517.65082,70,153.31,397.983
25/07/2016,MD -2,L,Kyle Lee,3442.61694,62,34.74,364.99981
25/07/2016,MD -2,L,Romeo Nathan ,3309.98389,61,16.79,367.4405
25/07/2016,MD -2,L,Kamani Kole,4634.46045,83,66.65,577.91327
25/07/2016,MD -2,L,Frank Ray,4022.85229,68,83.73,439.62347
25/07/2016,MD -2,L,Steve Reid,2871.05646,57,43.7,248.23605
26/07/2016,MD -1,L,Adam James,2666.073,42,134.75,306.4465
26/07/2016,MD -1,L,Carl Stewart,3384.59912,42,72.09,305.11197
26/07/2016,MD -1,L,Robbie Brooks,2985.20923,46,72.28,417.74857
26/07/2016,MD -1,L,Carl Yates,3234.95386,42,130.99,301.21417
26/07/2016,MD -1,L,Ben Roggers,3501.39893,42,51.56,347.81259
26/07/2016,MD -1,L,Kevin Marcus,2989.38306,42,95.45,273.63214
26/07/2016,MD -1,L,Ricardo Alvo,2930.16113,42,75.6,262.66937
26/07/2016,MD -1,L,Ravi Goopal,3208.93213,42,5.92,309.71234
26/07/2016,MD -1,L,Kimchee Jones,6517.3291,113,922.64,728.33807
26/07/2016,MD -1,L,Michael Vikram,3461.8606,54,58.01,311.127
26/07/2016,MD -1,L,Jimmy Ball,3358.41406,42,107.75,368.94281
26/07/2016,MD -1,L,Jeff Cordon,4061.8277,57,118.49,428.12988
26/07/2016,MD -1,L,Mark Tim,2950.18188,42,105.38,323.13556
26/07/2016,MD -1,L,Kim Khoo,3206.8335,42,61.45,332.21695
26/07/2016,MD -1,L,Kyle Lee,7703.22412,113,1022.43002,826.00903
26/07/2016,MD -1,L,Kent Butcher,4990.17383,74,335.88999,563.73357
26/07/2016,MD -1,L,Romeo Nathan ,2879.21606,42,48.64,328.36816
26/07/2016,MD -1,L,Kamani Kole,6533.87646,113,797.55001,824.24768
26/07/2016,MD -1,L,Frank Ray,3246.49707,42,74.25,335.53726
26/07/2016,MD -1,L,Steve Reid,2507.97534,47,14.76,265.55905
27/07/2016,MD,L,Adam James,10691.04004,97,1169.22,0
27/07/2016,MD,L,Carl Stewart,1870.16296,16,936.44001,192.30864
27/07/2016,MD,L,Carl Yates,1846.5343,16,906.03999,188.86322
27/07/2016,MD,L,Ben Roggers,12394.59619,97,756.46,0
27/07/2016,MD,L,Kevin Marcus,9991.70801,83,891.33001,0
27/07/2016,MD,L,Ricardo Alvo,1928.0824,16,869.68997,191.93379
27/07/2016,MD,L,Algo Sanchez,3819.68848,36,439.31999,366.73566
27/07/2016,MD,L,Ravi Goopal,4808.73242,41,916.11997,548.55957
27/07/2016,MD,L,Michael Vikram,1836.58105,16,932.53001,157.53073
27/07/2016,MD,L,Jimmy Ball,11991.41748,97,1290.45995,0
27/07/2016,MD,L,Jeff Cordon,1566.10461,14,184.66,0
27/07/2016,MD,L,Mark Tim,10737.45459,97,879.97001,0
27/07/2016,MD,L,Kim Khoo,8238.4895,69,860.96001,0
27/07/2016,MD,L,Romeo Nathan ,10085.03271,97,642.55001,0
27/07/2016,MD,L,Frank Ray,11050.94873,97,907.63999,0
27/07/2016,MD,L,Steve Reid,9942.65723,97,502.64001,0
30/07/2016,MD -3,W,Adam James,5674.7334,86,372.66999,599.08368
30/07/2016,MD -3,W,Carl Stewart,6208.44824,86,236.07,579.92816
30/07/2016,MD -3,W,Robbie Brooks,6892.75391,99,432.60001,721.06277
30/07/2016,MD -3,W,Carl Yates,5475.85791,86,308.78,527.7887
30/07/2016,MD -3,W,Ben Roggers,6293.10303,86,208.32,640.10925
30/07/2016,MD -3,W,Ricardo Alvo,5473.19629,86,275.21999,481.6629
30/07/2016,MD -3,W,Algo Sanchez,4627.48926,51,112.47,510.2644
30/07/2016,MD -3,W,Ravi Goopal,6021.00586,86,167.37,596.45001
30/07/2016,MD -3,W,Michael Vikram,5572.81006,86,291.83,472.41776
30/07/2016,MD -3,W,Jimmy Ball,5668.11426,86,263.77,625.58295
30/07/2016,MD -3,W,Jeff Cordon,5928.43945,86,336.13001,557.91962
30/07/2016,MD -3,W,Mark Tim,6234.64856,99,397.82999,685.67484
30/07/2016,MD -3,W,Kim Khoo,5427.44336,81,404.66999,576.35815
30/07/2016,MD -3,W,Kent Butcher,3807.76831,29,33.05,339.16422
30/07/2016,MD -3,W,Romeo Nathan ,5449.32959,86,223.88001,619.29291
30/07/2016,MD -3,W,Frank Ray,6181.11865,86,355.72,626.35114
30/07/2016,MD -3,W,Steve Reid,5552.42627,86,266.88,491.0892
1/08/2016,MD -1,W,Adam James,4090.26123,54,235.27,360.15307
1/08/2016,MD -1,W,Carl Stewart,3447.36963,43,50.56,350.21231
1/08/2016,MD -1,W,Robbie Brooks,3936.61011,56,191.17,402.03526
1/08/2016,MD -1,W,Carl Yates,3543.19922,43,110.41,348.60742
1/08/2016,MD -1,W,Ben Roggers,3568.93091,43,55.13,393.26624
1/08/2016,MD -1,W,Kevin Marcus,3525.50464,43,196.62001,327.18555
1/08/2016,MD -1,W,Ricardo Alvo,4007.16162,52,168.45,364.63992
1/08/2016,MD -1,W,Algo Sanchez,6154.2085,56,570.97,612.20166
1/08/2016,MD -1,W,Ravi Goopal,6132.39673,81,41.13,642.78766
1/08/2016,MD -1,W,Michael Vikram,3305.27759,43,38.15,279.89285
1/08/2016,MD -1,W,Jimmy Ball,3429.32275,43,79.25,387.42618
1/08/2016,MD -1,W,Jeff Cordon,3448.87842,43,150.15,319.43326
1/08/2016,MD -1,W,Mark Tim,3591.03247,57,87.36,410.1983
1/08/2016,MD -1,W,Kim Khoo,3184.81128,43,167.44,321.93262
1/08/2016,MD -1,W,Kyle Lee,10988.84851,96,551.97,1014.71571
1/08/2016,MD -1,W,Romeo Nathan ,3983.89111,54,63.89,400.33627
1/08/2016,MD -1,W,Kamani Kole,10795.8302,96,542.82,1178.99152
1/08/2016,MD -1,W,Frank Ray,4169.61426,54,173.23,451.15969
1/08/2016,MD -1,W,Steve Reid,3069.89648,43,38.2,266.44351
2/08/2016,MD,W,Adam James,10916.84082,95,1096.91001,0
2/08/2016,MD,W,Carl Stewart,1253.0481,9,703.35999,139.68694
2/08/2016,MD,W,Robbie Brooks,9061.99097,73,1084.24998,0
2/08/2016,MD,W,Carl Yates,1628.51276,11,779.14001,132.67804
2/08/2016,MD,W,Ben Roggers,13282.77686,95,835.48001,0
2/08/2016,MD,W,Kevin Marcus,12111.25684,93,1418.28997,0
2/08/2016,MD,W,Ricardo Alvo,824.33606,6,502.94001,90.04802
2/08/2016,MD,W,Algo Sanchez,4348.96436,54,786.90997,519.14301
2/08/2016,MD,W,Ravi Goopal,4726.27734,50,646.15002,536.55499
2/08/2016,MD,W,Michael Vikram,1320.31909,9,732.58002,109.79208
2/08/2016,MD,W,Jimmy Ball,12820.7085,95,859.94,0
2/08/2016,MD,W,Jeff Cordon,4883.89258,50,805.54999,500.19293
2/08/2016,MD,W,Mark Tim,11254.01709,95,1458.34999,0
2/08/2016,MD,W,Kim Khoo,3588.69238,25,748.60001,57.62508
2/08/2016,MD,W,Romeo Nathan ,10521.9209,95,406.47,0
2/08/2016,MD,W,Frank Ray,11789.19971,93,1173.93,0
2/08/2016,MD,W,Steve Reid,10615.76416,95,538.68999,0
6/08/2016,MD -7,W,Adam James,8399.10059,107,675.94002,911.61749
6/08/2016,MD -7,W,Carl Stewart,8593.19336,107,494.45999,904.10254
6/08/2016,MD -7,W,Carl Yates,8033.42236,107,567.59999,853.35913
6/08/2016,MD -7,W,Dan Giggs,7741.49121,107,286.41,811.47247
6/08/2016,MD -7,W,Kevin Marcus,8311.5625,107,750.40003,838.23462
6/08/2016,MD -7,W,Ricardo Alvo,7919.13525,107,596.56,750.30798
6/08/2016,MD -7,W,Algo Sanchez,5201.75439,53,120.04,570.48163
6/08/2016,MD -7,W,Ravi Goopal,8355.27734,107,499.65999,944.61523
6/08/2016,MD -7,W,Michael Vikram,8125.69531,107,455.88,779.82703
6/08/2016,MD -7,W,Jeff Cordon,8502.08008,107,586.22998,861.29523
6/08/2016,MD -7,W,Mark Tim,7391.72021,107,401.52,850.46777
6/08/2016,MD -7,W,Kim Khoo,8266.86035,107,624.17002,973.2088
6/08/2016,MD -7,W,Romeo Nathan ,8179.07568,107,506.64999,959.21161
6/08/2016,MD -7,W,Frank Ray,8354.42383,107,582.89,896.34808
6/08/2016,MD -7,W,Steve Reid,7305.9834,107,594.89001,674.07513
8/08/2016,MD -5,W,Adam James,7636.11523,102,421.59,791.20792
8/08/2016,MD -5,W,Carl Stewart,8782.01175,104,307.39,889.49785
8/08/2016,MD -5,W,Carl Yates,8051.68955,104,531.3,765.00594
8/08/2016,MD -5,W,Dan Giggs,7636.28271,101,376.56,776.45715
8/08/2016,MD -5,W,Kevin Marcus,7692.56184,104,562.9,754.62769
8/08/2016,MD -5,W,Ricardo Alvo,7723.02299,104,574.74001,728.80735
8/08/2016,MD -5,W,Algo Sanchez,8268.84668,101,358.52,914.54675
8/08/2016,MD -5,W,Ravi Goopal,3468.17114,50,2.77,374.80518
8/08/2016,MD -5,W,Kimchee Jones,11479.42761,93,996.36001,1134.43333
8/08/2016,MD -5,W,Michael Vikram,8112.2085,104,468.19999,715.63601
8/08/2016,MD -5,W,Mark Tim,7544.17252,104,408.89,873.48797
8/08/2016,MD -5,W,Kim Khoo,8202.52364,104,514.57001,943.0838
8/08/2016,MD -5,W,Kyle Lee,12246.55676,93,680.96,1068.2458
8/08/2016,MD -5,W,Kent Butcher,1745.09412,17,104.62,152.1259
8/08/2016,MD -5,W,Romeo Nathan ,7689.13818,101,259.15001,875.31934
8/08/2016,MD -5,W,Kamani Kole,11615.46326,93,589.51999,1244.26883
8/08/2016,MD -5,W,Frank Ray,8100.14404,101,292.41,832.6944
8/08/2016,MD -5,W,Steve Reid,7600.33681,102,396.42,684.77338
12/08/2016,MD -1,W,Adam James,4573.01251,60,164.87,469.81304
12/08/2016,MD -1,W,Carl Stewart,3825.44238,51,150.76,355.87845
12/08/2016,MD -1,W,Carl Yates,3905.96216,51,126.15,358.8587
12/08/2016,MD -1,W,Dan Giggs,4214.69165,70,40.85,375.6248
12/08/2016,MD -1,W,Ben Roggers,4129.57715,51,91.89,410.47168
12/08/2016,MD -1,W,Kevin Marcus,4938.34277,66,265.92,444.17513
12/08/2016,MD -1,W,Ricardo Alvo,4265.0592,65,216.34,391.7226
12/08/2016,MD -1,W,Algo Sanchez,3599.88721,51,168.49,383.19852
12/08/2016,MD -1,W,Ravi Goopal,6027.43311,80,76.45,622.62703
12/08/2016,MD -1,W,Kimchee Jones,7813.89354,117,411.01001,885.02783
12/08/2016,MD -1,W,Michael Vikram,3859.57275,51,143.83,339.30319
12/08/2016,MD -1,W,Jimmy Ball,2867.53711,39,62.85,318.1239
12/08/2016,MD -1,W,Jeff Cordon,4879.27686,69,138.11,454.48409
12/08/2016,MD -1,W,Mark Tim,3999.52051,62,164.56,417.96206
12/08/2016,MD -1,W,Kim Khoo,4806.79468,67,176,510.07356
12/08/2016,MD -1,W,Kyle Lee,8398.81458,117,346.34,822.65561
12/08/2016,MD -1,W,Romeo Nathan ,3783.33179,55,61.47,401.76125
12/08/2016,MD -1,W,Kamani Kole,7571.94014,117,585.51,903.70171
12/08/2016,MD -1,W,Frank Ray,4961.61816,63,123.38,480.52531
12/08/2016,MD -1,W,Steve Reid,3469.55103,51,57.01,278.77124
13/08/2016,MD,W,Adam James,12527.08942,124,852.9,65.08615
13/08/2016,MD,W,Carl Stewart,14324.0196,124,616.71,65.08615
13/08/2016,MD,W,Carl Yates,2874.35455,42,679.86002,225.10884
13/08/2016,MD,W,Dan Giggs,2507.87367,39,670.27997,211.21066
13/08/2016,MD,W,Ben Roggers,14060.83991,124,660.59999,65.08615
13/08/2016,MD,W,Kevin Marcus,9973.52521,96,933.62001,65.08615
13/08/2016,MD,W,Ricardo Alvo,2334.76374,38,621.97997,240.31772
13/08/2016,MD,W,Algo Sanchez,2328.67108,38,643.37999,229.729
13/08/2016,MD,W,Ravi Goopal,866.64899,26,0,65.08615
13/08/2016,MD,W,Kimchee Jones,8521.30176,135,648.93,1016.69879
13/08/2016,MD,W,Michael Vikram,866.64899,26,0,65.08615
13/08/2016,MD,W,Jeff Cordon,5590.4101,66,894.66002,219.68051
13/08/2016,MD,W,Mark Tim,12312.59186,124,1089.82,65.08615
13/08/2016,MD,W,Kim Khoo,13194.48249,123,1123.01998,65.08615
13/08/2016,MD,W,Kyle Lee,8124.99023,135,596.76,871.39484
13/08/2016,MD,W,Romeo Nathan ,11547.70124,124,370.62,65.08615
13/08/2016,MD,W,Kamani Kole,8275.69922,135,606.98001,1052.87927
13/08/2016,MD,W,Frank Ray,12565.08893,120,1105.79003,65.08615
13/08/2016,MD,W,Steve Reid,11913.41462,124,484.51999,65.08615
15/08/2016,MD -1,L,Adam James,1674.703,34,19.94,153.03419
15/08/2016,MD -1,L,Carl Stewart,1734.53308,34,5.33,147.02086
15/08/2016,MD -1,L,Carl Yates,1645.43488,41,1.78,150.76192
15/08/2016,MD -1,L,Dan Giggs,2062.83978,42,5.53,190.41438
15/08/2016,MD -1,L,Ben Roggers,1591.35107,34,0,163.07272
15/08/2016,MD -1,L,Ricardo Alvo,1344.09814,34,0,127.87441
15/08/2016,MD -1,L,Algo Sanchez,1748.75208,34,0,185.71863
15/08/2016,MD -1,L,Ravi Goopal,3104.73303,55,0,363.84587
15/08/2016,MD -1,L,Kimchee Jones,5239.85254,90,13.31,740.60205
15/08/2016,MD -1,L,Michael Vikram,2370.88513,55,23.78,216.0924
15/08/2016,MD -1,L,Jimmy Ball,1537.11902,34,4.72,187.56273
15/08/2016,MD -1,L,Jeff Cordon,1326.45764,34,0,126.68386
15/08/2016,MD -1,L,Mark Tim,1507.76208,34,0,177.24164
15/08/2016,MD -1,L,Kim Khoo,1386.92908,34,0,152.59628
15/08/2016,MD -1,L,Kyle Lee,5005.37793,90,29.17,712.46857
15/08/2016,MD -1,L,Romeo Nathan ,1418.99988,34,2.03,147.96498
15/08/2016,MD -1,L,Kamani Kole,2652.68103,55,61.98,292.8019
15/08/2016,MD -1,L,Frank Ray,1447.23145,34,0,140.4599
16/08/2016,MD,L,Adam James,10396.04883,95,1155.44998,0
16/08/2016,MD,L,Carl Stewart,11944.23584,95,791.21999,0
16/08/2016,MD,L,Carl Yates,1553.17297,13,752.54,141.01872
16/08/2016,MD,L,Dan Giggs,1553.17297,13,752.54,141.01872
16/08/2016,MD,L,Ben Roggers,8838.38818,70,563.77,0
16/08/2016,MD,L,Ricardo Alvo,1553.17297,13,752.54,141.01872
16/08/2016,MD,L,Algo Sanchez,7846.31763,62,695.69001,0
16/08/2016,MD,L,Ravi Goopal,6123.62793,89,500.07999,719.46185
16/08/2016,MD,L,Kimchee Jones,6187.9585,90,704.63001,793.13666
16/08/2016,MD,L,Michael Vikram,5592.81396,89,483.11,568.91077
16/08/2016,MD,L,Jeff Cordon,4387.04325,35,670.62999,55.79539
16/08/2016,MD,L,Mark Tim,10449.93457,95,774.88,0
16/08/2016,MD,L,Kim Khoo,7747.8501,62,683.79,0
16/08/2016,MD,L,Kyle Lee,6234.74658,90,613.03,709.16217
16/08/2016,MD,L,Romeo Nathan ,9889.8999,95,679.87999,0
16/08/2016,MD,L,Kamani Kole,5918.78125,90,655.38,743.05237
16/08/2016,MD,L,Frank Ray,11193.53369,95,764.29999,0
16/08/2016,MD,L,Steve Reid,10143.2334,95,768.16997,0
19/08/2016,MD -4,L,Adam James,8287.98584,107,449.47999,884.33749
19/08/2016,MD -4,L,Carl Stewart,8202.10352,97,240.91,817.51245
19/08/2016,MD -4,L,Dan Giggs,8277.3418,115,300.58,852.29463
19/08/2016,MD -4,L,Ben Roggers,8367.92383,97,245.7,920.75726
19/08/2016,MD -4,L,Ricardo Alvo,8532.32629,117,531.43999,795.43503
19/08/2016,MD -4,L,Algo Sanchez,7755.46729,97,393.92,861.16949
19/08/2016,MD -4,L,Ravi Goopal,7685.63672,97,127.72,803.80328
19/08/2016,MD -4,L,Kimchee Jones,2599.39819,70,9.44,309.83667
19/08/2016,MD -4,L,Michael Vikram,7227.00879,97,321.90999,669.03088
19/08/2016,MD -4,L,Jimmy Ball,7415.52197,97,237.4,870.88232
19/08/2016,MD -4,L,Jeff Cordon,7361.26709,97,355.07,702.12653
19/08/2016,MD -4,L,Mark Tim,6889.13574,97,415.19001,832.53436
19/08/2016,MD -4,L,Kim Khoo,7163.22217,97,354.11001,844.78741
19/08/2016,MD -4,L,Kyle Lee,8780.03308,108,260.15999,878.68324
19/08/2016,MD -4,L,Romeo Nathan ,7235.92822,97,149.03999,835.34827
19/08/2016,MD -4,L,Kamani Kole,2783.00659,72,0,361.41306
19/08/2016,MD -4,L,Frank Ray,8296.34509,116,263.74,881.18291
20/08/2016,MD -3,L,Adam James,5836.05078,77,237.93,620.74438
20/08/2016,MD -3,L,Carl Stewart,5684.34494,89,132.87,507.99826
20/08/2016,MD -3,L,Carl Yates,6843.2363,98,470.28,674.94891
20/08/2016,MD -3,L,Dan Giggs,6467.44073,107,162.69,680.68031
20/08/2016,MD -3,L,Ben Roggers,4425.72601,72,119.02,481.8403
20/08/2016,MD -3,L,Ricardo Alvo,5357.23389,77,231.92,502.83502
20/08/2016,MD -3,L,Algo Sanchez,5553.99213,73,361.57,609.7017
20/08/2016,MD -3,L,Ravi Goopal,4484.96521,66,19.51,442.57854
20/08/2016,MD -3,L,Kimchee Jones,10978.04102,137,803.29002,1229.03333
20/08/2016,MD -3,L,Michael Vikram,5427.54639,77,215.58,476.40848
20/08/2016,MD -3,L,Jimmy Ball,641.04407,16,0,66.1776
20/08/2016,MD -3,L,Jeff Cordon,3920.58612,66,95.32,359.51135
20/08/2016,MD -3,L,Mark Tim,1749.71729,28,12.84,192.3812
20/08/2016,MD -3,L,Kim Khoo,5536.59302,89,269.12,595.1042
20/08/2016,MD -3,L,Kyle Lee,4624.99567,66,97.44,439.99864
20/08/2016,MD -3,L,Romeo Nathan ,5888.98254,92,172.72001,705.45009
20/08/2016,MD -3,L,Kamani Kole,5875.94589,106,85.17,675.65364
20/08/2016,MD -3,L,Frank Ray,3800.20135,63,123.42,386.2559
22/08/2016,MD -1,L,Adam James,2362.50732,37,91.1,222.21759
22/08/2016,MD -1,L,Carl Stewart,2861.28516,37,34.48,261.6723
22/08/2016,MD -1,L,Dan Giggs,2267.98318,40,0.81,233.17391
22/08/2016,MD -1,L,Ben Roggers,2622.07251,37,20.94,284.65237
22/08/2016,MD -1,L,Ricardo Alvo,2534.60107,37,44.1,245.9223
22/08/2016,MD -1,L,Algo Sanchez,1967.46387,37,12.37,199.90561
22/08/2016,MD -1,L,Ravi Goopal,4122.85327,57,40.27,454.45605
22/08/2016,MD -1,L,Kimchee Jones,6174.1748,87,463.43001,670.23932
22/08/2016,MD -1,L,Michael Vikram,2540.05522,40,3.2,219.68079
22/08/2016,MD -1,L,Jimmy Ball,2549.27441,37,68.36,284.20972
22/08/2016,MD -1,L,Jeff Cordon,2273.36792,37,45.15,211.08966
22/08/2016,MD -1,L,Mark Tim,2464.76343,37,30.27,292.70883
22/08/2016,MD -1,L,Kim Khoo,1269.63025,18,7.32,153.43578
22/08/2016,MD -1,L,Kyle Lee,2534.43848,37,18.74,255.71515
22/08/2016,MD -1,L,Romeo Nathan ,2425.27222,37,24.08,246.49686
22/08/2016,MD -1,L,Kamani Kole,4227.49634,57,81.66,522.92474
22/08/2016,MD -1,L,Frank Ray,2525.81152,37,28.85,247.54002
22/08/2016,MD -1,L,Steve Reid,2666.46826,37,28.22,233.69864
23/08/2016,MD,L,Adam James,10986.43652,96,1239.47999,0
23/08/2016,MD,L,Carl Stewart,12515.21973,96,805.69,0
23/08/2016,MD,L,Dan Giggs,3134.81678,26,800.69002,144.44551
23/08/2016,MD,L,Ben Roggers,12986.68555,96,934.40001,0
23/08/2016,MD,L,Ricardo Alvo,9561.26123,82,1158.84001,0
23/08/2016,MD,L,Algo Sanchez,5258.97772,40,985.74,54.96287
23/08/2016,MD,L,Ravi Goopal,4931.1792,43,916.25002,553.92914
23/08/2016,MD,L,Kimchee Jones,2983.83228,41,93.48,391.27991
23/08/2016,MD,L,Michael Vikram,778.39307,5,448.50001,61.19438
23/08/2016,MD,L,Jeff Cordon,7044.57764,61,494.70999,0
23/08/2016,MD,L,Mark Tim,11118.54883,96,1016.19002,0
23/08/2016,MD,L,Romeo Nathan ,10450.36816,96,892.14998,0
23/08/2016,MD,L,Frank Ray,11150.64746,96,997.72002,0
23/08/2016,MD,L,Steve Reid,10694.67725,96,780.22002,0
1/09/2016,MD -5,D,Carl Stewart,6656.25098,92,460.21001,679.96729
1/09/2016,MD -5,D,Dan Giggs,6893.4646,102,298.53999,679.31699
1/09/2016,MD -5,D,Ricardo Alvo,6260.53271,92,374.46001,605.60413
1/09/2016,MD -5,D,Algo Sanchez,6449.87598,92,388.86,721.76294
1/09/2016,MD -5,D,Ravi Goopal,6642.67236,92,269.41,612.13745
1/09/2016,MD -5,D,Kimchee Jones,4679.53223,81,126.28,524.36658
1/09/2016,MD -5,D,Michael Vikram,6899.06287,102,269.48,614.65704
1/09/2016,MD -5,D,Jimmy Ball,6904.55762,92,358.91999,748.26141
1/09/2016,MD -5,D,Jeff Cordon,6329.35352,92,454.15999,627.77991
1/09/2016,MD -5,D,Mark Tim,5878.11426,92,259.29,688.45465
1/09/2016,MD -5,D,Kim Khoo,3298.39917,36,867.27003,393.77985
1/09/2016,MD -5,D,Kyle Lee,6348.1416,92,382.70999,635.94592
1/09/2016,MD -5,D,Romeo Nathan ,6386.7915,92,254.38,781.18762
1/09/2016,MD -5,D,Kamani Kole,6740.77295,92,281.41,810.99011
1/09/2016,MD -5,D,Frank Ray,6786.10486,102,369.08999,686.59661
1/09/2016,MD -5,D,Steve Reid,1067.526,28,0,157.81137
2/09/2016,MD -4,D,Adam James,8910.17478,99,687.59,851.53014
2/09/2016,MD -4,D,Carl Stewart,8436.54028,100,316.72,821.23376
2/09/2016,MD -4,D,Robbie Brooks,3801.74512,54,96.64,442.89835
2/09/2016,MD -4,D,Carl Yates,8104.89243,99,467.8,740.27045
2/09/2016,MD -4,D,Dan Giggs,7199.14669,89,353.13999,701.45807
2/09/2016,MD -4,D,Ben Roggers,8665.00602,89,486.07999,927.02966
2/09/2016,MD -4,D,Ricardo Alvo,8141.76758,89,916.66,746.19159
2/09/2016,MD -4,D,Algo Sanchez,7520.33931,89,562.51001,803.96595
2/09/2016,MD -4,D,Ravi Goopal,8000.97997,89,332.16,760.56593
2/09/2016,MD -4,D,Kimchee Jones,5961.65918,106,491.61999,623.1449
2/09/2016,MD -4,D,Michael Vikram,7618.37695,89,384.68,618.80817
2/09/2016,MD -4,D,Jimmy Ball,8205.34974,89,477.40001,881.25508
2/09/2016,MD -4,D,Jeff Cordon,7984.55264,89,754.25999,727.77701
2/09/2016,MD -4,D,Mark Tim,6673.46855,89,509.48,693.53935
2/09/2016,MD -4,D,Kim Khoo,2549.72705,57,0,435.41461
2/09/2016,MD -4,D,Kyle Lee,7987.45448,89,426.33001,768.42471
2/09/2016,MD -4,D,Romeo Nathan ,7795.9541,103,286.50999,889.9115
2/09/2016,MD -4,D,Kamani Kole,8763.98328,103,426.41999,983.64785
2/09/2016,MD -4,D,Frank Ray,8333.09775,89,686.45999,896.42514
2/09/2016,MD -4,D,Steve Reid,6803.25684,88,177.51001,622.2182
3/09/2016,MD -3,D,Adam James,1939.82446,27,25.76,219.93198
3/09/2016,MD -3,D,Carl Stewart,1747.75269,35,18.79,186.58473
3/09/2016,MD -3,D,Robbie Brooks,5464.14014,41,763.24998,543.21899
3/09/2016,MD -3,D,Carl Yates,3205.51978,45,677.81001,354.65524
3/09/2016,MD -3,D,Dan Giggs,2349.74316,38,33.84,262.26584
3/09/2016,MD -3,D,Ben Roggers,1604.86462,30,0,187.25629
3/09/2016,MD -3,D,Kevin Marcus,3932.07056,33,569.57001,277.91595
3/09/2016,MD -3,D,Ricardo Alvo,1658.25232,27,9.97,186.97797
3/09/2016,MD -3,D,Algo Sanchez,2464.06885,47,10.04,304.84064
3/09/2016,MD -3,D,Ravi Goopal,1666.36511,32,4.35,164.72954
3/09/2016,MD -3,D,Kimchee Jones,7184.59326,113,443.51999,842.14435
3/09/2016,MD -3,D,Michael Vikram,2314.98169,38,15.86,209.38138
3/09/2016,MD -3,D,Jimmy Ball,2122.38281,40,11.5,262.51404
3/09/2016,MD -3,D,Jeff Cordon,2195.25513,37,35.18,240.74159
3/09/2016,MD -3,D,Kyle Lee,2563.03906,40,29.38,258.70786
3/09/2016,MD -3,D,Romeo Nathan ,2183.89624,37,16.7,279.6442
3/09/2016,MD -3,D,Kamani Kole,2987.56543,45,93.35,356.56213
3/09/2016,MD -3,D,Frank Ray,2260.81201,37,30.41,258.30188
3/09/2016,MD -3,D,Steve Reid,2025.78406,34,12.65,183.99835
5/09/2016,MD -1,D,Adam James,3159.21777,49,114.73,301.1882
5/09/2016,MD -1,D,Carl Stewart,3859.48804,59,7.18,343.45452
5/09/2016,MD -1,D,Robbie Brooks,5945.41211,77,1005.09,720.87622
5/09/2016,MD -1,D,Carl Yates,4096.8559,61,92.18,373.81149
5/09/2016,MD -1,D,Dan Giggs,3880.69855,64,26.39,351.90263
5/09/2016,MD -1,D,Ben Roggers,3853.24646,61,29.32,397.21462
5/09/2016,MD -1,D,Kevin Marcus,4178.49561,30,1137.91003,334.03665
5/09/2016,MD -1,D,Ricardo Alvo,3859.31531,67,57.47,327.32083
5/09/2016,MD -1,D,Algo Sanchez,3670.37036,61,85.28,405.07245
5/09/2016,MD -1,D,Ravi Goopal,5085.37329,84,49.11,487.93095
5/09/2016,MD -1,D,Kimchee Jones,6374.22656,97,263.88999,712.94519
5/09/2016,MD -1,D,Michael Vikram,3836.70941,63,24.23,308.19469
5/09/2016,MD -1,D,Jimmy Ball,3922.72687,61,72.38,453.12637
5/09/2016,MD -1,D,Jeff Cordon,4095.02014,65,167.29,384.04632
5/09/2016,MD -1,D,Mark Tim,3376.89526,67,52.85,379.2551
5/09/2016,MD -1,D,Kim Khoo,1598.72498,20,13.1,184.90038
5/09/2016,MD -1,D,Kyle Lee,6589.29907,101,174.51,643.59558
5/09/2016,MD -1,D,Romeo Nathan ,2983.12329,49,3.36,350.2037
5/09/2016,MD -1,D,Kamani Kole,6333.42212,101,143.21,810.49405
5/09/2016,MD -1,D,Frank Ray,4177.61841,75,141.02,450.70799
6/09/2016,MD,D,Adam James,10717.11084,98,1049.16,0
6/09/2016,MD,D,Carl Stewart,1638.34863,14,852.96003,173.2126
6/09/2016,MD,D,Carl Yates,1601.56226,14,847.72999,165.48045
6/09/2016,MD,D,Dan Giggs,10798.9707,98,697.68,0
6/09/2016,MD,D,Ben Roggers,12582.56543,98,691.47,0
6/09/2016,MD,D,Kevin Marcus,4670.61816,50,24.13,464.27444
6/09/2016,MD,D,Ricardo Alvo,1568.44739,14,651.53,173.47823
6/09/2016,MD,D,Algo Sanchez,11528.67627,92,1262.96998,0
6/09/2016,MD,D,Kimchee Jones,1617.72314,47,2.7,210.87711
6/09/2016,MD,D,Michael Vikram,1624.37146,14,828.23998,135.60367
6/09/2016,MD,D,Jeff Cordon,10939.67432,98,1193.15999,0
6/09/2016,MD,D,Mark Tim,10876.24561,98,826.41999,0
6/09/2016,MD,D,Kyle Lee,1827.48743,47,17.37,215.21915
6/09/2016,MD,D,Romeo Nathan ,10327.67236,98,509.8,0
6/09/2016,MD,D,Kamani Kole,1866.80701,47,16.72,239.95992
6/09/2016,MD,D,Frank Ray,11402.34033,98,1087.15999,0
9/09/2016,MD -1,L,Adam James,3453.1311,62,109.52,350.16989
9/09/2016,MD -1,L,Carl Stewart,4195.69287,65,86.48,427.49388
9/09/2016,MD -1,L,Robbie Brooks,5617.03027,60,516.20999,609.20459
9/09/2016,MD -1,L,Carl Yates,3624.41919,62,172.61001,354.37555
9/09/2016,MD -1,L,Dan Giggs,3518.21826,62,47.79,331.58246
9/09/2016,MD -1,L,Ben Roggers,4035.00171,62,96.24,417.63458
9/09/2016,MD -1,L,Kevin Marcus,3472.4646,62,164.8,314.89764
9/09/2016,MD -1,L,Ricardo Alvo,3526.91113,62,174.68001,340.02512
9/09/2016,MD -1,L,Ravi Goopal,3180.41113,62,57.18,289.44824
9/09/2016,MD -1,L,Kimchee Jones,3329.07324,83,35.88,459.13309
9/09/2016,MD -1,L,Michael Vikram,3130.48657,62,32.73,267.32813
9/09/2016,MD -1,L,Jeff Cordon,3674.05933,62,250.36,354.30927
9/09/2016,MD -1,L,Mark Tim,3233.03485,73,142.67,331.31338
9/09/2016,MD -1,L,Kyle Lee,3736.63379,62,77.7,356.88336
9/09/2016,MD -1,L,Romeo Nathan ,3651.27319,62,48.36,399.3288
9/09/2016,MD -1,L,Kamani Kole,4333.18506,90,68.21,543.39056
9/09/2016,MD -1,L,Frank Ray,4148.7027,77,97.89,405.53274
10/09/2016,MD,L,Adam James,8674.61743,71,1085.64001,0
10/09/2016,MD,L,Carl Stewart,12413.79639,94,994.76998,0
10/09/2016,MD,L,Carl Yates,4037.32715,37,425.03,0
10/09/2016,MD,L,Dan Giggs,10813.8335,94,877.92999,0
10/09/2016,MD,L,Ben Roggers,12968.58496,94,942.49001,0
10/09/2016,MD,L,Kevin Marcus,2632.3269,23,657.77001,246.13283
10/09/2016,MD,L,Ricardo Alvo,4515.10999,40,1041.90999,182.79576
10/09/2016,MD,L,Algo Sanchez,3985.73755,24,0,413.00064
10/09/2016,MD,L,Kimchee Jones,6467.79053,136,753.83999,844.29677
10/09/2016,MD,L,Michael Vikram,1844.7533,17,484.05,153.99344
10/09/2016,MD,L,Jeff Cordon,7392.57153,58,891.16999,0
10/09/2016,MD,L,Mark Tim,10497.88867,94,1011.20002,0
10/09/2016,MD,L,Kyle Lee,1848.03442,17,475.17,187.36794
10/09/2016,MD,L,Romeo Nathan ,10254.17188,94,695.42001,0
10/09/2016,MD,L,Frank Ray,10351.70166,81,932.75001,0
12/09/2016,MD -1,L,Adam James,1353.56812,25,0,136.51376
12/09/2016,MD -1,L,Carl Stewart,1351.02673,25,0,125.32409
12/09/2016,MD -1,L,Robbie Brooks,5947.54004,68,522.71,645.82611
12/09/2016,MD -1,L,Carl Yates,1266.60608,25,0,121.88308
12/09/2016,MD -1,L,Dan Giggs,1637.80859,36,0,132.11927
12/09/2016,MD -1,L,Kevin Marcus,1325.59546,25,0,118.01725
12/09/2016,MD -1,L,Ricardo Alvo,1551.29279,35,0,127.06325
12/09/2016,MD -1,L,Algo Sanchez,4555.98291,37,160.94,503.47055
12/09/2016,MD -1,L,Kimchee Jones,7182.33545,123,452.40001,877.80633
12/09/2016,MD -1,L,Michael Vikram,1635.60657,35,0,124.50531
12/09/2016,MD -1,L,Jimmy Ball,3805.91003,89,0,556.03285
12/09/2016,MD -1,L,Jeff Cordon,1674.34448,38,11.59,163.83015
12/09/2016,MD -1,L,Mark Tim,1596.56586,36,0,184.43428
12/09/2016,MD -1,L,Kyle Lee,2358.18225,48,0,254.80798
12/09/2016,MD -1,L,Romeo Nathan ,1615.28247,34,0,165.01369
12/09/2016,MD -1,L,Kamani Kole,3826.03235,89,0,468.19196
12/09/2016,MD -1,L,Frank Ray,1174.30469,25,0,112.7188
13/09/2016,MD,L,Adam James,11822.6333,97,929.68,0
13/09/2016,MD,L,Carl Stewart,12870.18994,97,590.96001,0
13/09/2016,MD,L,Robbie Brooks,4184.26367,65,374.5,547.23328
13/09/2016,MD,L,Carl Yates,10655.125,97,362.09,0
13/09/2016,MD,L,Dan Giggs,10512.58936,97,474.34,0
13/09/2016,MD,L,Kevin Marcus,9467.03882,78,499.1,0
13/09/2016,MD,L,Ricardo Alvo,2900.83752,24,855.68998,162.2377
13/09/2016,MD,L,Algo Sanchez,5408.87598,46,648.69001,597.68433
13/09/2016,MD,L,Ravi Goopal,4365.13135,34,0,446.36758
13/09/2016,MD,L,Kimchee Jones,6719.24854,115,889.53997,811.89771
13/09/2016,MD,L,Michael Vikram,9165.38818,85,298.14,0
13/09/2016,MD,L,Jimmy Ball,4682.49072,65,636.75,619.99396
13/09/2016,MD,L,Jeff Cordon,2881.42664,24,761.56,168.01024
13/09/2016,MD,L,Mark Tim,11362.40381,97,752.42,0
13/09/2016,MD,L,Kyle Lee,1561.80603,12,685.14998,151.27904
13/09/2016,MD,L,Romeo Nathan ,10030.71582,97,399.78,0
13/09/2016,MD,L,Frank Ray,11249.02246,97,804.41002,0
16/09/2016,MD -4,W,Adam James,7997.81085,103,469.40002,818.73849
16/09/2016,MD -4,W,Carl Stewart,8320.45313,91,217.59,797.9093
16/09/2016,MD -4,W,Robbie Brooks,7760.35876,104,443.29999,777.44978
16/09/2016,MD -4,W,Carl Yates,8082.13135,112,576.19999,773.28782
16/09/2016,MD -4,W,Kevin Marcus,8407.26086,107,1019.50001,744.03563
16/09/2016,MD -4,W,Ricardo Alvo,8215.44629,111,690.16002,782.5033
16/09/2016,MD -4,W,Ravi Goopal,7541.7085,91,303.29999,780.02472
16/09/2016,MD -4,W,Kimchee Jones,5775.66943,99,106.15,580.04297
16/09/2016,MD -4,W,Michael Vikram,8465.6748,109,366.23,741.49397
16/09/2016,MD -4,W,Jimmy Ball,7842.83838,91,442.18,874.45862
16/09/2016,MD -4,W,Jeff Cordon,7320.4541,91,592.34002,701.99414
16/09/2016,MD -4,W,Kim Khoo,2639.1377,22,0,232.48344
16/09/2016,MD -4,W,Kyle Lee,9027.82947,112,480.50001,852.83267
16/09/2016,MD -4,W,Romeo Nathan ,7419.84277,91,188.64,794.39844
16/09/2016,MD -4,W,Kamani Kole,6056.57153,121,75.88,729.08119
16/09/2016,MD -4,W,Frank Ray,8101.35699,106,420.99,795.10075
17/09/2016,MD -3,W,Adam James,4960.44287,69,179.54001,536.18036
17/09/2016,MD -3,W,Carl Stewart,4448.71436,51,66.1,416.33936
17/09/2016,MD -3,W,Robbie Brooks,4824.33997,66,244.97,445.1848
17/09/2016,MD -3,W,Carl Yates,5167.60156,69,203.72,486.27759
17/09/2016,MD -3,W,Dan Giggs,4899.54443,69,97.69,481.75195
17/09/2016,MD -3,W,Ricardo Alvo,5105.61035,69,259.28,494.0853
17/09/2016,MD -3,W,Algo Sanchez,4685.06641,51,459.69,480.25006
17/09/2016,MD -3,W,Ravi Goopal,4245.50146,51,100.72,431.05319
17/09/2016,MD -3,W,Kimchee Jones,6828.18848,109,727.12002,844.13373
17/09/2016,MD -3,W,Michael Vikram,5818.55011,80,179.9,508.37186
17/09/2016,MD -3,W,Jimmy Ball,2537.13086,25,27.11,275.48163
17/09/2016,MD -3,W,Mark Tim,3593.67188,51,33.9,419.88907
17/09/2016,MD -3,W,Kim Khoo,3241.87427,24,0,263.97394
17/09/2016,MD -3,W,Kyle Lee,4771.47125,62,138.66,472.33235
17/09/2016,MD -3,W,Romeo Nathan ,5284.36987,79,150.69,561.05835
17/09/2016,MD -3,W,Kamani Kole,5791.01392,85,282.49,612.53225
17/09/2016,MD -3,W,Frank Ray,6490.2644,105,209.99,665.71119
19/09/2016,MD -1,W,Adam James,3388.27393,54,170.6,364.33475
19/09/2016,MD -1,W,Carl Stewart,3517.35425,54,36.23,322.5766
19/09/2016,MD -1,W,Robbie Brooks,3997.02881,65,113.45,419.7657
19/09/2016,MD -1,W,Carl Yates,3451.53931,54,138.56,325.66507
19/09/2016,MD -1,W,Dan Giggs,3770.84729,66,13.54,369.0501
19/09/2016,MD -1,W,Kevin Marcus,3825.18481,65,118.61,354.848
19/09/2016,MD -1,W,Ricardo Alvo,3197.84717,54,102.53,298.9982
19/09/2016,MD -1,W,Algo Sanchez,3129.6687,54,33.22,338.4726
19/09/2016,MD -1,W,Ravi Goopal,4029.30225,82,9.71,447.99966
19/09/2016,MD -1,W,Kimchee Jones,6828.18848,109,727.12002,844.13373
19/09/2016,MD -1,W,Michael Vikram,3221.39063,54,62.69,287.96881
19/09/2016,MD -1,W,Jimmy Ball,3356.46118,54,20.24,415.55554
19/09/2016,MD -1,W,Mark Tim,3809.48547,66,33.12,452.26889
19/09/2016,MD -1,W,Kim Khoo,2744.85498,21,499.92999,286.58844
19/09/2016,MD -1,W,Kyle Lee,4047.87964,67,23.24,402.40649
19/09/2016,MD -1,W,Romeo Nathan ,3826.95111,66,16.17,428.44527
19/09/2016,MD -1,W,Kamani Kole,4541.68848,82,30.63,533.22687
19/09/2016,MD -1,W,Frank Ray,4332.37671,73,125.28,486.15092
20/09/2016,MD,W,Adam James,5151.56982,41,665.42001,0
20/09/2016,MD,W,Carl Stewart,12940.43066,95,1094.00001,0
20/09/2016,MD,W,Robbie Brooks,11101.46045,95,1096.46999,0
20/09/2016,MD,W,Carl Yates,10938.72607,95,792.49001,0
20/09/2016,MD,W,Dan Giggs,10731.44336,95,689.59,0
20/09/2016,MD,W,Kevin Marcus,8197.21045,67,858.78003,0
20/09/2016,MD,W,Ricardo Alvo,1083.02588,9,368.67001,118.84376
20/09/2016,MD,W,Algo Sanchez,4366.4514,31,839.09,43.26978
20/09/2016,MD,W,Ravi Goopal,4323.87012,36,566.24001,516.61182
20/09/2016,MD,W,Kimchee Jones,2269.45776,48,92.68,261.6084
20/09/2016,MD,W,Michael Vikram,1150.77905,9,373.16,111.64672
20/09/2016,MD,W,Jimmy Ball,12132.43604,95,1185.86001,0
20/09/2016,MD,W,Mark Tim,10649.01514,93,1228.36997,0
20/09/2016,MD,W,Kim Khoo,3621.4314,35,637.85999,429.80585
20/09/2016,MD,W,Romeo Nathan ,10357.12109,95,622.07,0
20/09/2016,MD,W,Frank Ray,11460.18213,95,1307.61999,0
23/09/2016,MD -4,D,Carl Stewart,1885.00903,28,18.39,195.60031
23/09/2016,MD -4,D,Robbie Brooks,4050.16016,59,36.74,436.78384
23/09/2016,MD -4,D,Carl Yates,4698.43701,59,239.13,500.35275
23/09/2016,MD -4,D,Dan Giggs,3843.0813,59,45.66,429.66858
23/09/2016,MD -4,D,Kevin Marcus,4697.24854,59,78.81,461.81543
23/09/2016,MD -4,D,Ricardo Alvo,4076.63281,59,199.94,407.2739
23/09/2016,MD -4,D,Ravi Goopal,4419.06885,59,42.69,467.38934
23/09/2016,MD -4,D,Michael Vikram,4345.56934,59,64.88,377.10468
23/09/2016,MD -4,D,Jeff Cordon,4266.16504,59,96.65,444.90399
23/09/2016,MD -4,D,Mark Tim,3742.90503,59,44.99,447.48849
23/09/2016,MD -4,D,Kyle Lee,4448.72656,59,63.67,474.04971
23/09/2016,MD -4,D,Romeo Nathan ,3744.04932,59,21.41,435.5011
23/09/2016,MD -4,D,Kamani Kole,4342.51953,59,75.59,583.09192
23/09/2016,MD -4,D,Frank Ray,4427.54541,59,72.19,441.36026
24/09/2016,MD -3,D,Adam James,3339.01807,31,0,278.862
24/09/2016,MD -3,D,Robbie Brooks,4388.12549,67,167.26,481.61466
24/09/2016,MD -3,D,Carl Yates,5006.02197,74,193.15,507.16821
24/09/2016,MD -3,D,Dan Giggs,5227.01337,90,6.72,548.74908
24/09/2016,MD -3,D,Ricardo Alvo,4786.23096,74,191.59,499.41165
24/09/2016,MD -3,D,Algo Sanchez,4720.94745,66,176.82,542.96155
24/09/2016,MD -3,D,Ravi Goopal,3721.16333,51,22.3,371.61002
24/09/2016,MD -3,D,Kimchee Jones,4205.4458,89,95.88,478.93744
24/09/2016,MD -3,D,Michael Vikram,4580.48584,74,69.55,437.509
24/09/2016,MD -3,D,Jimmy Ball,3575.34619,51,29.46,418.13708
24/09/2016,MD -3,D,Jeff Cordon,3598.15503,51,118.47,373.87421
24/09/2016,MD -3,D,Mark Tim,3597.95154,52,119.05,402.65627
24/09/2016,MD -3,D,Kim Khoo,5363.46143,48,449.18001,534.95789
24/09/2016,MD -3,D,Kyle Lee,3755.98633,51,95.62,383.89273
24/09/2016,MD -3,D,Romeo Nathan ,4559.76416,74,23.68,514.36609
24/09/2016,MD -3,D,Kamani Kole,5067.51001,89,73.89,606.56118
24/09/2016,MD -3,D,Frank Ray,3562.81982,51,149.59,405.32489
26/09/2016,MD -1,D,Adam James,4858.05615,39,0,485.07614
26/09/2016,MD -1,D,Robbie Brooks,3982.61426,66,55.15,412.89098
26/09/2016,MD -1,D,Carl Yates,3647.13696,55,164.97,345.43973
26/09/2016,MD -1,D,Dan Giggs,3191.40259,55,29.15,309.73932
26/09/2016,MD -1,D,Kevin Marcus,4020.59229,65,44.07,414.57504
26/09/2016,MD -1,D,Ricardo Alvo,3507.36646,55,100.26,333.83109
26/09/2016,MD -1,D,Algo Sanchez,3313.78223,55,57.45,362.53311
26/09/2016,MD -1,D,Ravi Goopal,3325.69727,55,2.15,314.92618
26/09/2016,MD -1,D,Kimchee Jones,11191.68909,96,842.25,1158.14262
26/09/2016,MD -1,D,Michael Vikram,3809.75562,69,5.44,330.10454
26/09/2016,MD -1,D,Jimmy Ball,3603.33667,55,30.39,432.81866
26/09/2016,MD -1,D,Jeff Cordon,3857.50146,63,133.26,371.44889
26/09/2016,MD -1,D,Mark Tim,3500.64014,66,113.41,404.86031
26/09/2016,MD -1,D,Kim Khoo,4441.99609,43,362.98,492.16721
26/09/2016,MD -1,D,Kyle Lee,3653.32813,55,33.93,351.20444
26/09/2016,MD -1,D,Kent Butcher,475.18201,17,0,78.09025
26/09/2016,MD -1,D,Romeo Nathan ,3119.22949,55,38.64,351.77759
26/09/2016,MD -1,D,Kamani Kole,5510.61182,93,33.29,624.47781
26/09/2016,MD -1,D,Frank Ray,4710.50659,79,88.49,531.66267
27/09/2016,MD,D,Adam James,3520.48535,28,132.69,377.28281
27/09/2016,MD,D,Robbie Brooks,11258.89209,99,1110.98998,0
27/09/2016,MD,D,Carl Yates,11161.62842,99,943.03997,0
27/09/2016,MD,D,Dan Giggs,10804.95996,99,498.72,0
27/09/2016,MD,D,Kevin Marcus,12038.69824,99,734.71001,0
27/09/2016,MD,D,Ricardo Alvo,1472.61841,11,660.61001,149.85564
27/09/2016,MD,D,Algo Sanchez,3245.23688,24,699.92,60.07612
27/09/2016,MD,D,Ravi Goopal,5406.67529,65,744.91998,589.06653
27/09/2016,MD,D,Michael Vikram,1492.4585,11,746.77003,126.67443
27/09/2016,MD,D,Jimmy Ball,12061.14209,99,594.27,0
27/09/2016,MD,D,Jeff Cordon,9387.03809,80,1103.26,0
27/09/2016,MD,D,Mark Tim,10883.84424,99,1087.11,0
27/09/2016,MD,D,Kim Khoo,5099.29688,52,1041.00997,567.02533
27/09/2016,MD,D,Kyle Lee,1523.81323,11,714.09002,153.80106
27/09/2016,MD,D,Romeo Nathan ,10642.01611,99,543.22,0
27/09/2016,MD,D,Frank Ray,11441.04443,99,891.27002,0
7/10/2016,MD -4,L,Adam James,5822.69043,48,775.04999,546.61859
7/10/2016,MD -4,L,Carl Yates,6125.18506,95,242.29999,659.03796
7/10/2016,MD -4,L,Dan Giggs,1093.60303,11,0,81.17994
7/10/2016,MD -4,L,Ben Roggers,6755.22559,95,10.82,846.88129
7/10/2016,MD -4,L,Ricardo Alvo,6131.86035,95,151.09,650.31683
7/10/2016,MD -4,L,Algo Sanchez,9879,81,1140,0
7/10/2016,MD -4,L,Ravi Goopal,10672.02246,84,341.27,1032.42599
7/10/2016,MD -4,L,Michael Vikram,6600.08154,99,261.95,703.20278
7/10/2016,MD -4,L,Jeff Cordon,6510.62671,107,122.45,695.91036
7/10/2016,MD -4,L,Mark Tim,10569,90,1074,0
7/10/2016,MD -4,L,Kim Khoo,6634.36523,95,176.19999,832.13928
7/10/2016,MD -4,L,Kyle Lee,6390.12256,95,73.52,690.7746
7/10/2016,MD -4,L,Kent Butcher,1555.58813,34,0,186.84628
7/10/2016,MD -4,L,Romeo Nathan ,6098.57324,95,33.04,759.01801
7/10/2016,MD -4,L,Kamani Kole,6424.83252,95,96.43,766.37238
9/10/2016,MD -2,L,Adam James,4962.51025,55,833.37997,488.52356
9/10/2016,MD -2,L,Robbie Brooks,2784.46704,45,157.97,346.49713
9/10/2016,MD -2,L,Carl Yates,2978.89795,51,34.93,320.04007
9/10/2016,MD -2,L,Dan Giggs,3363.68066,51,35.26,378.51065
9/10/2016,MD -2,L,Kevin Marcus,3247.01953,51,106.3,349.16116
9/10/2016,MD -2,L,Ricardo Alvo,2683.65063,51,62.27,265.02359
9/10/2016,MD -2,L,Michael Vikram,2673.33008,51,42.49,288.86749
9/10/2016,MD -2,L,Jimmy Ball,2745.09753,50,139.36,341.66208
9/10/2016,MD -2,L,Jeff Cordon,3078.89746,55,69.67,309.11122
9/10/2016,MD -2,L,Kim Khoo,2151.84988,42,85.46,229.39652
9/10/2016,MD -2,L,Kyle Lee,3011.86926,49,152.31,347.83791
9/10/2016,MD -2,L,Kent Butcher,1768.39612,33,0,249.64142
9/10/2016,MD -2,L,Romeo Nathan ,3089.22339,51,18.77,386.97623
9/10/2016,MD -2,L,Kamani Kole,3970.2959,87,27.9,532.15927
9/10/2016,MD -2,L,Frank Ray,2506.68524,52,22.79,292.82607
10/10/2016,MD -1,L,Robbie Brooks,3797.12915,65,86.36,396.07316
10/10/2016,MD -1,L,Carl Yates,3826.39111,59,56.17,373.88016
10/10/2016,MD -1,L,Dan Giggs,4095.14844,68,35.24,393.30019
10/10/2016,MD -1,L,Ben Roggers,3650.32056,53,31.83,402.19922
10/10/2016,MD -1,L,Kevin Marcus,3768.98676,63,86.29,380.33445
10/10/2016,MD -1,L,Ricardo Alvo,3384.55518,59,132.9,314.11967
10/10/2016,MD -1,L,Algo Sanchez,2980.75293,53,47.96,321.48935
10/10/2016,MD -1,L,Ravi Goopal,5987.23022,97,16.82,656.03088
10/10/2016,MD -1,L,Kimchee Jones,5868.99121,104,510.64999,746.80444
10/10/2016,MD -1,L,Michael Vikram,4215.11902,75,43.41,373.26871
10/10/2016,MD -1,L,Jimmy Ball,3428.17432,53,58.24,404.20328
10/10/2016,MD -1,L,Jeff Cordon,2998.58594,53,85.04,294.18494
10/10/2016,MD -1,L,Mark Tim,2859.79004,53,55.55,316.02267
10/10/2016,MD -1,L,Kim Khoo,3561.58398,53,116.17,395.87262
10/10/2016,MD -1,L,Kyle Lee,3180.04956,53,29.85,310.53415
10/10/2016,MD -1,L,Romeo Nathan ,4268.17432,68,39.83,474.41299
10/10/2016,MD -1,L,Kamani Kole,5759.90576,97,96.99,634.83801
10/10/2016,MD -1,L,Frank Ray,3246.52173,53,58.68,346.8157
11/10/2016,MD,L,Adam James,6056.78564,61,157.67999,644.76038
11/10/2016,MD,L,Robbie Brooks,10867.75635,94,816.49999,0
11/10/2016,MD,L,Carl Yates,6524.88599,56,501.95,0
11/10/2016,MD,L,Dan Giggs,9637.604,94,407.12,0
11/10/2016,MD,L,Ben Roggers,13066.46582,94,851.18002,0
11/10/2016,MD,L,Kevin Marcus,11690.43799,94,1137.77002,0
11/10/2016,MD,L,Ricardo Alvo,4143.46924,38,465.09001,0
11/10/2016,MD,L,Algo Sanchez,4213.4722,32,870.14002,60.04157
11/10/2016,MD,L,Ravi Goopal,6159.4502,109,228.86,690.68152
11/10/2016,MD,L,Kimchee Jones,6277.72021,109,462.79999,720.17786
11/10/2016,MD,L,Michael Vikram,1607.90625,13,753.13999,135.95038
11/10/2016,MD,L,Jimmy Ball,8722.40698,65,598.93999,0
11/10/2016,MD,L,Jeff Cordon,1585.08911,13,685.11,176.00021
11/10/2016,MD,L,Mark Tim,8650.62891,74,635.01,0
11/10/2016,MD,L,Kim Khoo,3311.71949,27,529.94001,83.03941
11/10/2016,MD,L,Romeo Nathan ,9843.73193,94,417.81001,0
11/10/2016,MD,L,Kamani Kole,6220.79639,109,568.95,745.41852
11/10/2016,MD,L,Frank Ray,11101.81836,94,853.27001,0
11/10/2016,MD,L,Steve Reid,3535.63037,28,496.32999,286.44537
14/10/2016,MD -4,L,Adam James,7588.24072,100,457.18999,769.04004
14/10/2016,MD -4,L,Robbie Brooks,7563.24414,108,446.33001,765.27868
14/10/2016,MD -4,L,Carl Yates,4850.6582,72,269.16,523.24164
14/10/2016,MD -4,L,Dan Giggs,7543.70703,108,330.54,794.76604
14/10/2016,MD -4,L,Ben Roggers,8247.37988,100,161.27,978.7002
14/10/2016,MD -4,L,Kevin Marcus,8061.15692,102,861.49,806.29517
14/10/2016,MD -4,L,Ricardo Alvo,7454.59277,100,584.84,747.16962
14/10/2016,MD -4,L,Algo Sanchez,6738.48242,100,281.20001,784.96771
14/10/2016,MD -4,L,Ravi Goopal,7649.28418,100,222.25,823.70734
14/10/2016,MD -4,L,Kimchee Jones,7053.71875,107,313.72,806.58752
14/10/2016,MD -4,L,Michael Vikram,7872.23062,108,269.72001,689.4861
14/10/2016,MD -4,L,Jimmy Ball,7393.71338,100,289.77,880.29272
14/10/2016,MD -4,L,Jeff Cordon,6849.93799,100,366.23001,680.03131
14/10/2016,MD -4,L,Mark Tim,6085.58105,100,207.06,702.42743
14/10/2016,MD -4,L,Kim Khoo,7637.08212,105,525.18,909.19271
14/10/2016,MD -4,L,Kyle Lee,7837.70117,100,267.63,788.98792
14/10/2016,MD -4,L,Romeo Nathan ,6881.91748,100,244.57,746.69617
14/10/2016,MD -4,L,Frank Ray,2255.48364,36,55.93,288.80087
15/10/2016,MD -3,L,Adam James,5930.80908,84,299.46,626.75098
15/10/2016,MD -3,L,Robbie Brooks,6865.75244,98,244.86,693.29047
15/10/2016,MD -3,L,Dan Giggs,5777.91895,84,72.48,616.5473
15/10/2016,MD -3,L,Ben Roggers,6071.0376,84,102.44,697.44214
15/10/2016,MD -3,L,Kevin Marcus,6015.67383,84,331.29999,598.07001
15/10/2016,MD -3,L,Ricardo Alvo,5935.18115,84,289.41,572.88757
15/10/2016,MD -3,L,Algo Sanchez,6526.67041,96,217.53999,744.46692
15/10/2016,MD -3,L,Ravi Goopal,5790.96533,84,127.09,608.73029
15/10/2016,MD -3,L,Kimchee Jones,8566.41016,134,991.74999,986.80383
15/10/2016,MD -3,L,Michael Vikram,5799.93506,84,232.97,515.0675
15/10/2016,MD -3,L,Jimmy Ball,5794.34424,84,137.08,686.32593
15/10/2016,MD -3,L,Jeff Cordon,5770.97461,93,354.40001,553.33971
15/10/2016,MD -3,L,Mark Tim,3760.88306,52,115.31,454.12592
15/10/2016,MD -3,L,Kim Khoo,6928.03223,84,353.42999,800.53784
15/10/2016,MD -3,L,Kyle Lee,6161.58496,84,144.52,612.3028
15/10/2016,MD -3,L,Kent Butcher,4419.2959,36,686.89001,428.19989
15/10/2016,MD -3,L,Romeo Nathan ,5524.56787,84,91.9,638.08856
15/10/2016,MD -3,L,Steve Reid,6020.24927,53,710.71998,598.30036
17/10/2016,MD -1,L,Adam James,3947.97208,60,126.19,344.39506
17/10/2016,MD -1,L,Robbie Brooks,3662.92017,64,95.51,349.82072
17/10/2016,MD -1,L,Dan Giggs,3475.30417,58,38.55,320.15307
17/10/2016,MD -1,L,Ben Roggers,3465.77222,52,58.96,344.52725
17/10/2016,MD -1,L,Kevin Marcus,4173.32007,64,95.24,413.38268
17/10/2016,MD -1,L,Ricardo Alvo,2840.50415,52,58.46,257.9476
17/10/2016,MD -1,L,Algo Sanchez,2787.88525,52,12.85,296.35342
17/10/2016,MD -1,L,Ravi Goopal,5631.97925,90,37.25,589.34686
17/10/2016,MD -1,L,Kimchee Jones,5212.6665,97,109.98,700.93933
17/10/2016,MD -1,L,Michael Vikram,4110.29712,69,93.16,339.31049
17/10/2016,MD -1,L,Jimmy Ball,3410.27686,52,47.94,384.62848
17/10/2016,MD -1,L,Jeff Cordon,3141.49609,60,121.88,308.42829
17/10/2016,MD -1,L,Mark Tim,3444.12695,60,130.86,406.91808
17/10/2016,MD -1,L,Kim Khoo,3713.77191,70,75.66,422.36692
17/10/2016,MD -1,L,Kyle Lee,5612.96753,78,102.71,554.04239
17/10/2016,MD -1,L,Kent Butcher,4264.52734,33,202.53,400.78256
17/10/2016,MD -1,L,Romeo Nathan ,3147.51147,52,64.49,359.78329
17/10/2016,MD -1,L,Kamani Kole,5310.96338,90,62.27,587.108
17/10/2016,MD -1,L,Frank Ray,3681.66455,60,57.06,343.72464
17/10/2016,MD -1,L,Steve Reid,4502.43408,53,451.61001,452.2428
18/10/2016,MD,L,Adam James,11004.04785,97,1025.80001,0
18/10/2016,MD,L,Robbie Brooks,10783.66406,97,1019.39,0
18/10/2016,MD,L,Dan Giggs,10401.15771,97,576.89999,0
18/10/2016,MD,L,Ben Roggers,8175.10962,60,500.61998,0
18/10/2016,MD,L,Kevin Marcus,11731.19189,97,966.36,0
18/10/2016,MD,L,Ricardo Alvo,5462.58057,50,671.56002,0
18/10/2016,MD,L,Algo Sanchez,5408.62958,40,733.43,52.82835
18/10/2016,MD,L,Ravi Goopal,5241.92334,79,154.56,586.45758
18/10/2016,MD,L,Kimchee Jones,5709.57178,74,313.98001,715.8053
18/10/2016,MD,L,Michael Vikram,1619.18213,11,1025.61998,129.64847
18/10/2016,MD,L,Jimmy Ball,8979.45605,72,611.77001,0
18/10/2016,MD,L,Jeff Cordon,1666.55249,11,863.67998,176.3582
18/10/2016,MD,L,Mark Tim,10374.72803,97,721.87001,0
18/10/2016,MD,L,Kim Khoo,3743.21979,28,525.97,48.80467
18/10/2016,MD,L,Romeo Nathan ,10601.25781,97,702.85002,0
18/10/2016,MD,L,Kamani Kole,5560.38525,79,660.70001,687.98157
18/10/2016,MD,L,Frank Ray,10476.12061,97,926.14002,0
18/10/2016,MD,L,Steve Reid,5508.23633,79,261.23,592.74268
28/10/2016,MD -4,L,Adam James,4487.88623,56,388.67,510.63492
28/10/2016,MD -4,L,Robbie Brooks,6270.4577,103,484.82001,757.14004
28/10/2016,MD -4,L,Dan Giggs,6410.82813,104,609.08,725.47383
28/10/2016,MD -4,L,Ben Roggers,5917.90088,88,586.34001,740.96204
28/10/2016,MD -4,L,Kevin Marcus,6377.05444,113,696.66002,654.07161
28/10/2016,MD -4,L,Algo Sanchez,7125.30176,104,550.75001,832.30497
28/10/2016,MD -4,L,Ravi Goopal,6383.13525,88,361.67,718.98932
28/10/2016,MD -4,L,Michael Vikram,6920.74225,101,529.67001,672.85046
28/10/2016,MD -4,L,Jimmy Ball,6198.44531,88,566.25999,799.34088
28/10/2016,MD -4,L,Jeff Cordon,5313.02686,88,695.56999,565.50946
28/10/2016,MD -4,L,Mark Tim,4913.66504,88,640.33999,645.35168
28/10/2016,MD -4,L,Kim Khoo,6814.34766,113,556.42001,863.01543
28/10/2016,MD -4,L,Kyle Lee,11552.62122,91,445.17,1010.58081
28/10/2016,MD -4,L,Romeo Nathan ,6135.42139,88,490.61,798.74152
28/10/2016,MD -4,L,Kamani Kole,10883.01245,91,551.82999,1096.60971
28/10/2016,MD -4,L,Frank Ray,6728.83008,107,499.04999,804.50185
28/10/2016,MD -4,L,Steve Reid,4162.18506,56,147.14,430.39108
29/10/2016,MD -3,L,Adam James,6718.63428,111,402.43,713.32391
29/10/2016,MD -3,L,Robbie Brooks,6106.38989,99,252.49,662.08669
29/10/2016,MD -3,L,Dan Giggs,6531.52783,114,54.23,688.61864
29/10/2016,MD -3,L,Ben Roggers,5652.39307,74,89.98,635.11938
29/10/2016,MD -3,L,Kevin Marcus,6455.82056,109,316.14,620.24795
29/10/2016,MD -3,L,Algo Sanchez,6475.62109,98,212.66999,739.05457
29/10/2016,MD -3,L,Ravi Goopal,5484.95313,74,42.82,598.82062
29/10/2016,MD -3,L,Michael Vikram,5067.05225,82,246.55,502.82941
29/10/2016,MD -3,L,Jimmy Ball,5308.63965,74,133.04,636.84619
29/10/2016,MD -3,L,Jeff Cordon,4643.40723,74,219.46999,469.05438
29/10/2016,MD -3,L,Mark Tim,3179.53271,53,129.34,348.28122
29/10/2016,MD -3,L,Kim Khoo,5314.65674,74,363.67999,595.20038
29/10/2016,MD -3,L,Kent Butcher,5288.58142,66,859.43997,501.09341
29/10/2016,MD -3,L,Romeo Nathan ,7156.17529,109,310.58,796.16017
29/10/2016,MD -3,L,Frank Ray,6657.46545,109,322.76999,736.36008
29/10/2016,MD -3,L,Steve Reid,4630.00586,81,71.24,449.06122
31/10/2016,MD -1,L,Adam James,2608.45166,48,100.29,301.88062
31/10/2016,MD -1,L,Robbie Brooks,3013.51703,61,38.45,351.96569
31/10/2016,MD -1,L,Dan Giggs,3543.26257,68,36.96,407.12106
31/10/2016,MD -1,L,Ben Roggers,2721.58521,48,29.11,319.37698
31/10/2016,MD -1,L,Kevin Marcus,3477.31299,70,116.85,354.80745
31/10/2016,MD -1,L,Algo Sanchez,2750.66138,58,13.02,290.18174
31/10/2016,MD -1,L,Ravi Goopal,2343.16772,48,6.25,245.90919
31/10/2016,MD -1,L,Michael Vikram,3329.25903,65,32.26,311.7606
31/10/2016,MD -1,L,Jimmy Ball,3171.97015,60,27.6,389.6131
31/10/2016,MD -1,L,Jeff Cordon,2619.98621,60,45.81,271.53498
31/10/2016,MD -1,L,Mark Tim,2787.81836,60,44.6,302.5722
31/10/2016,MD -1,L,Kim Khoo,2784.52576,69,60.5,304.99332
31/10/2016,MD -1,L,Kyle Lee,5719.92603,94,147.89,578.9144
31/10/2016,MD -1,L,Kent Butcher,4763.04077,80,288.51,521.15762
31/10/2016,MD -1,L,Romeo Nathan ,2905.86319,56,105.82,375.57192
31/10/2016,MD -1,L,Kamani Kole,5493.59131,94,198.35,662.41287
31/10/2016,MD -1,L,Frank Ray,3261.68988,68,109.53,384.96194
31/10/2016,MD -1,L,Steve Reid,2579.62866,48,29.91,252.6459
1/11/2016,MD,L,Robbie Brooks,10785.37354,100,730.07002,0
1/11/2016,MD,L,Dan Giggs,8578.6665,80,445.31,0
1/11/2016,MD,L,Ben Roggers,12935.9668,100,730.18999,0
1/11/2016,MD,L,Kevin Marcus,11032.58057,100,1079.93001,0
1/11/2016,MD,L,Algo Sanchez,4827.63745,39,687.1,39.70354
1/11/2016,MD,L,Ravi Goopal,1940.797,17,899.15001,230.04919
1/11/2016,MD,L,Michael Vikram,8687.96289,78,431.39001,0
1/11/2016,MD,L,Jimmy Ball,11823.32617,100,707.14,0
1/11/2016,MD,L,Jeff Cordon,3734.00488,36,560.03998,412.90536
1/11/2016,MD,L,Mark Tim,7074.77954,65,493.44,0
1/11/2016,MD,L,Kim Khoo,2320.67505,22,211.58001,0
1/11/2016,MD,L,Kyle Lee,6041.96729,71,689.91998,624.87079
1/11/2016,MD,L,Kent Butcher,6097.46729,71,874.75001,602.92651
1/11/2016,MD,L,Romeo Nathan ,10675.6499,100,778.06001,0
1/11/2016,MD,L,Kamani Kole,1850.63843,17,895.84003,216.36009
1/11/2016,MD,L,Frank Ray,10838.70801,100,863.2,0
1/11/2016,MD,L,Steve Reid,10645.77148,100,416.10999,0
4/11/2016,MD -4,D,Robbie Brooks,6691.68622,109,377.96001,811.21947
4/11/2016,MD -4,D,Dan Giggs,5540.96191,87,370.11,624.56232
4/11/2016,MD -4,D,Ben Roggers,5919.35156,87,225.84,793.93774
4/11/2016,MD -4,D,Kevin Marcus,6824.90149,116,474.07001,708.72214
4/11/2016,MD -4,D,Algo Sanchez,5923.02148,87,343.72001,710.63123
4/11/2016,MD -4,D,Ravi Goopal,5776.125,87,277.54,635.73608
4/11/2016,MD -4,D,Michael Vikram,5570.95068,87,311.47,595.94629
4/11/2016,MD -4,D,Jimmy Ball,6056.64063,87,363.29,767.70966
4/11/2016,MD -4,D,Jeff Cordon,5392.90527,87,436.48999,571.71777
4/11/2016,MD -4,D,Mark Tim,5056.99854,87,372.51,661.89697
4/11/2016,MD -4,D,Kent Butcher,5846.78418,87,411.19,653.46057
4/11/2016,MD -4,D,Romeo Nathan ,5755.2915,87,364.74999,747.62646
4/11/2016,MD -4,D,Frank Ray,5830.52246,87,404.17,720.53552
4/11/2016,MD -4,D,Simon Farrow,753.25604,14,0,79.05467
4/11/2016,MD -4,D,Steve Reid,5532.7251,87,278.13001,620.20062
5/11/2016,MD -3,D,Robbie Brooks,4869.36987,81,95.17,530.10109
5/11/2016,MD -3,D,Dan Giggs,5317.91748,84,94.41,546.07142
5/11/2016,MD -3,D,Ben Roggers,5274.44482,67,56.26,622.50146
5/11/2016,MD -3,D,Kevin Marcus,5701.27441,86,239.84,556.0406
5/11/2016,MD -3,D,Algo Sanchez,4817.71729,67,116.17,519.73242
5/11/2016,MD -3,D,Ravi Goopal,5106.19995,67,103.505,625.620695
5/11/2016,MD -3,D,Michael Vikram,5211.90918,81,185.81,487.10942
5/11/2016,MD -3,D,Jimmy Ball,4937.95508,67,150.75,628.73993
5/11/2016,MD -3,D,Jeff Cordon,5134.91455,90,67.46,568.30937
5/11/2016,MD -3,D,Kyle Lee,9280.82886,97,443.81,849.43358
5/11/2016,MD -3,D,Kent Butcher,5552.3501,74,525.64001,555.74144
5/11/2016,MD -3,D,Romeo Nathan ,5280.63477,81,77.1,601.01077
5/11/2016,MD -3,D,Kamani Kole,10310.5708,97,605.56,1055.77605
5/11/2016,MD -3,D,Frank Ray,4791.67676,67,102.95,576.10431
7/11/2016,MD -1,D,Robbie Brooks,3602.42676,55,129.54,402.83025
7/11/2016,MD -1,D,Dan Giggs,3585.92188,66,31.64,386.01648
7/11/2016,MD -1,D,Ben Roggers,3254.25244,47,31.74,372.14557
7/11/2016,MD -1,D,Kevin Marcus,3602.95087,64,124.32,364.467
7/11/2016,MD -1,D,Algo Sanchez,3534.5672,65,35,365.72159
7/11/2016,MD -1,D,Ravi Goopal,2792.10913,47,8.4,282.18903
7/11/2016,MD -1,D,Michael Vikram,3466.20035,54,103.26,311.57246
7/11/2016,MD -1,D,Jimmy Ball,3115.23016,54,17.48,390.59587
7/11/2016,MD -1,D,Jeff Cordon,3139.20398,58,71.86,330.40393
7/11/2016,MD -1,D,Mark Tim,3483.93903,59,181.96,422.0396
7/11/2016,MD -1,D,Kyle Lee,3207.427,47,47.77,342.91342
7/11/2016,MD -1,D,Kent Butcher,3457.79028,56,223.42,349.01093
7/11/2016,MD -1,D,Romeo Nathan ,3239.79898,54,34.39,378.22013
7/11/2016,MD -1,D,Kamani Kole,3601.25201,56,101.51,381.96481
7/11/2016,MD -1,D,Frank Ray,1821.35864,24,40.17,214.92839
7/11/2016,MD -1,D,Simon Farrow,1042.6781,17,0,119.63361
7/11/2016,MD -1,D,Steve Reid,2875.72803,47,45.41,290.58066
8/11/2016,MD,D,Robbie Brooks,11026.63428,98,998,0
8/11/2016,MD,D,Dan Giggs,2618.79224,23,123.83,0
8/11/2016,MD,D,Ben Roggers,7039.06903,56,513.40999,0
8/11/2016,MD,D,Kevin Marcus,11134.28271,98,926.48,0
8/11/2016,MD,D,Algo Sanchez,2635.71924,24,122.58,0
8/11/2016,MD,D,Ravi Goopal,5507.59912,43,283.81,0
8/11/2016,MD,D,Michael Vikram,10841.78027,98,637.84998,0
8/11/2016,MD,D,Jimmy Ball,11565.21582,98,774.55998,0
8/11/2016,MD,D,Jeff Cordon,1302.96106,12,415.97,136.39574
8/11/2016,MD,D,Mark Tim,10129.05176,98,786.16998,0
8/11/2016,MD,D,Kent Butcher,6921.83105,88,652.5,720.3324
8/11/2016,MD,D,Romeo Nathan ,10403.73779,98,643.16998,0
8/11/2016,MD,D,Frank Ray,8213.18481,76,710.55,0
8/11/2016,MD,D,Steve Reid,10139.27002,98,341.49999,0
13/11/2016,MD -2,W,Adam James,5651.28613,87,279.66001,614.28549
13/11/2016,MD -2,W,Robbie Brooks,5065.42529,106,109.19,591.28116
13/11/2016,MD -2,W,Dan Giggs,5134.12793,82,115.3,526.85878
13/11/2016,MD -2,W,Ricardo Alvo,4395.29932,40,813.63998,500.51895
13/11/2016,MD -2,W,Algo Sanchez,4418.21533,45,471.5,479.05334
13/11/2016,MD -2,W,Ravi Goopal,4259.35059,72,11.16,487.12622
13/11/2016,MD -2,W,Michael Vikram,5052.14209,91,298.93,473.57675
13/11/2016,MD -2,W,Jimmy Ball,4451.80176,72,74.21,613.47565
13/11/2016,MD -2,W,Jeff Cordon,5304.77881,106,200.64,553.02788
13/11/2016,MD -2,W,Mark Tim,3824.05908,72,117.54,459.52548
13/11/2016,MD -2,W,Kyle Lee,5089.74805,91,109.35,523.22065
13/11/2016,MD -2,W,Kent Butcher,5097.84131,91,194.99999,500.38027
13/11/2016,MD -2,W,Romeo Nathan ,4692.24902,73,114.62,571.36511
13/11/2016,MD -2,W,Kamani Kole,3507.07837,51,101.57,400.2074
13/11/2016,MD -2,W,Frank Ray,4053.40308,72,180.18,451.11896
13/11/2016,MD -2,W,Steve Reid,4383.94434,73,84.69,475.38815
14/11/2016,MD -1,W,Adam James,2470.03223,51,113.3,280.49268
14/11/2016,MD -1,W,Robbie Brooks,3129.3255,68,79.76,378.66299
14/11/2016,MD -1,W,Dan Giggs,3799.41968,74,100.06,391.01914
14/11/2016,MD -1,W,Kevin Marcus,2803.02319,22,539.41,236.54405
14/11/2016,MD -1,W,Ravi Goopal,2252.09888,51,27.35,225.91617
14/11/2016,MD -1,W,Michael Vikram,3395.05225,66,55.57,328.2622
14/11/2016,MD -1,W,Jimmy Ball,3577.87335,62,70.37,446.9289
14/11/2016,MD -1,W,Jeff Cordon,3423.0148,63,156.81,340.00249
14/11/2016,MD -1,W,Mark Tim,2906.48804,65,103.18,341.81541
14/11/2016,MD -1,W,Kyle Lee,3719.72888,70,95.27,357.01917
14/11/2016,MD -1,W,Kent Butcher,3590.65619,70,96.33,353.44703
14/11/2016,MD -1,W,Romeo Nathan ,3377.54126,63,55.26,384.89561
14/11/2016,MD -1,W,Kamani Kole,3610.30408,74,88.43,390.35568
14/11/2016,MD -1,W,Frank Ray,3078.0813,70,38.87,329.28873
14/11/2016,MD -1,W,Simon Farrow,2063.9209,25,0,211.96135
14/11/2016,MD -1,W,Steve Reid,2852.42465,62,60.9,283.87204
15/11/2016,MD,W,Adam James,11465.14844,97,1457.38,0
15/11/2016,MD,W,Robbie Brooks,10901.76172,97,972.19001,0
15/11/2016,MD,W,Algo Sanchez,5446.27393,50,682.84003,556.98999
15/11/2016,MD,W,Michael Vikram,10885.63916,97,770.16001,0
15/11/2016,MD,W,Jimmy Ball,12081.22852,97,793.21001,0
15/11/2016,MD,W,Jeff Cordon,9436.23218,78,825.19,0
15/11/2016,MD,W,Mark Tim,10692.07715,97,887.56,0
15/11/2016,MD,W,Romeo Nathan ,11684.79932,97,696.55998,0
15/11/2016,MD,W,Frank Ray,11267.64111,97,1014.40002,0
15/11/2016,MD,W,Steve Reid,10558.22363,97,605.89,0
20/11/2016,MD -3,L,Adam James,6082.43555,82,198.20999,644.33087
20/11/2016,MD -3,L,James Jones,6842.02325,101,239.12,764.35166
20/11/2016,MD -3,L,Carl Stewart,3321.65253,32,22.11,334.23978
20/11/2016,MD -3,L,Robbie Brooks,6279.29749,101,124.44,784.00215
20/11/2016,MD -3,L,Dan Giggs,6129.31073,102,99.7,698.10068
20/11/2016,MD -3,L,Kevin Marcus,3895.17822,43,758.82001,359.23059
20/11/2016,MD -3,L,Ravi Goopal,5798.23486,82,81.52,669.07526
20/11/2016,MD -3,L,Michael Vikram,6427.41846,102,158.14,654.78383
20/11/2016,MD -3,L,Jimmy Ball,5959.79053,82,110.67,782.71545
20/11/2016,MD -3,L,Jeff Cordon,5438.66992,82,240.88,580.39886
20/11/2016,MD -3,L,Mark Tim,5720.48944,100,108.29,716.2082
20/11/2016,MD -3,L,Kyle Lee,6639.16724,102,137.8,715.97118
20/11/2016,MD -3,L,Kent Butcher,6684.76807,102,198.14,722.95169
20/11/2016,MD -3,L,Romeo Nathan ,6137.21924,82,102.48,880.06616
20/11/2016,MD -3,L,Frank Ray,5022.24023,82,170.45,567.61407
20/11/2016,MD -3,L,Steve Reid,5109.33105,82,44.38,557.56152
21/11/2016,MD -2,L,Adam James,3034.53418,53,60.57,342.76782
21/11/2016,MD -2,L,James Jones,2310.3501,41,53.94,266.67624
21/11/2016,MD -2,L,Robbie Brooks,2924.5437,53,16.35,358.57021
21/11/2016,MD -2,L,Dan Giggs,3021.03223,63,6.38,334.26419
21/11/2016,MD -2,L,Ricardo Alvo,3555.37109,36,105.49,376.4863
21/11/2016,MD -2,L,Algo Sanchez,2091.9502,31,0,243.37904
21/11/2016,MD -2,L,Ravi Goopal,2160.50513,41,13.02,243.99884
21/11/2016,MD -2,L,Michael Vikram,2728.56445,63,8.05,300.69165
21/11/2016,MD -2,L,Jimmy Ball,2430.14404,58,0,358.18916
21/11/2016,MD -2,L,Jeff Cordon,3309.94165,70,52.42,363.10676
21/11/2016,MD -2,L,Mark Tim,1786.30432,41,0.96,254.48497
21/11/2016,MD -2,L,Kyle Lee,3668.98071,63,94.79,398.04736
21/11/2016,MD -2,L,Gavin Cook,3886.40479,38,103.36,378.58838
21/11/2016,MD -2,L,Kent Butcher,3237.25391,63,67.87,327.30859
21/11/2016,MD -2,L,Romeo Nathan ,2803.95703,59,0,417.66524
21/11/2016,MD -2,L,Frank Ray,2203.95398,55,0,350.24439
21/11/2016,MD -2,L,Simon Farrow,4003.37817,49,0,415.29712
21/11/2016,MD -2,L,Steve Reid,2661.7688,76,0,324.43106
22/11/2016,MD -1,L,Adam James,1955.23914,40,36.54,207.76271
22/11/2016,MD -1,L,Carl Stewart,3284.09619,30,153.27999,334.77774
22/11/2016,MD -1,L,Robbie Brooks,1981.09863,40,68.85,221.12457
22/11/2016,MD -1,L,Dan Giggs,1991.87305,40,47.68,205.5558
22/11/2016,MD -1,L,Kevin Marcus,2968.99243,29,147.30999,287.04663
22/11/2016,MD -1,L,Ricardo Alvo,3721.71362,42,318.63,431.50366
22/11/2016,MD -1,L,Algo Sanchez,3858.57397,43,403.04,377.37299
22/11/2016,MD -1,L,Ravi Goopal,1732.48926,40,13.02,176.26945
22/11/2016,MD -1,L,Michael Vikram,2574.02295,48,52.98,231.48575
22/11/2016,MD -1,L,Jimmy Ball,2307.02197,40,41,285.15854
22/11/2016,MD -1,L,Jeff Cordon,2469.68396,46,25.08,237.95873
22/11/2016,MD -1,L,Mark Tim,1707.14893,40,3.61,198.05342
22/11/2016,MD -1,L,Kyle Lee,2207.54248,40,28.16,207.13625
22/11/2016,MD -1,L,Kent Butcher,2130.67651,40,48.89,199.48975
22/11/2016,MD -1,L,Romeo Nathan ,2279.86816,40,57.05,288.23773
22/11/2016,MD -1,L,Kamani Kole,2459.33459,47,25.06,254.32427
22/11/2016,MD -1,L,Frank Ray,2472.01376,46,38.66,265.53922
22/11/2016,MD -1,L,Steve Reid,2354.16675,48,30.56,249.63044
23/11/2016,MD,L,Adam James,11247.31934,98,1257.59001,0
23/11/2016,MD,L,Robbie Brooks,10969.76758,98,889.74999,0
23/11/2016,MD,L,Dan Giggs,2764.05371,27,220.63,0
23/11/2016,MD,L,Michael Vikram,7816.48096,70,477.33999,0
23/11/2016,MD,L,Jimmy Ball,11967.35938,98,944.03999,0
23/11/2016,MD,L,Jeff Cordon,8270.16162,71,805.21002,0
23/11/2016,MD,L,Mark Tim,10413.60107,98,866.62,0
23/11/2016,MD,L,Romeo Nathan ,11830.08545,98,861.68999,0
23/11/2016,MD,L,Frank Ray,10762.45947,98,878.73999,0
23/11/2016,MD,L,Steve Reid,10360.4541,98,604.97999,0
16/02/2017,MD -5,D,Adam James,2318.45532,56,32.75,244.11395
16/02/2017,MD -5,D,James Jones,4501.69507,82,84.1,516.34857
16/02/2017,MD -5,D,Carl Stewart,3859.45435,73,752.42998,381.88885
16/02/2017,MD -5,D,Robbie Brooks,2829.54932,56,42.38,312.66882
16/02/2017,MD -5,D,Carl Yates,4354.35986,73,619.09003,436.17703
16/02/2017,MD -5,D,Ricardo Alvo,2864.04565,56,98.95,302.85931
16/02/2017,MD -5,D,Algo Sanchez,4527.8313,83,96.34,472.05476
16/02/2017,MD -5,D,Kimchee Jones,3421.05615,83,45.86,365.59215
16/02/2017,MD -5,D,Novak Kilenski,6976,108.69,318,0
16/02/2017,MD -5,D,Rafael Menon,5690.91455,107,236.22,630.41434
16/02/2017,MD -5,D,Michael Vikram,4455.91785,79,66.06,412.05144
16/02/2017,MD -5,D,Jimmy Ball,4817.98193,82,39.41,613.09586
16/02/2017,MD -5,D,Jeff Cordon,3631.08899,72,667.82999,389.46777
16/02/2017,MD -5,D,Mark Tim,2976.17725,56,105.76,353.11172
16/02/2017,MD -5,D,Kim Khoo,2176.26318,38,61.34,256.28528
16/02/2017,MD -5,D,Kyle Lee,3455.45337,28,586.01998,311.6749
16/02/2017,MD -5,D,Gavin Cook,5641.83521,97,743.28001,546.99731
16/02/2017,MD -5,D,Kent Butcher,4597.80249,107,57.82,484.14928
16/02/2017,MD -5,D,Romeo Nathan ,2603.20313,56,22.97,319.86917
16/02/2017,MD -5,D,Kamani Kole,4443.15222,82,35.03,524.31793
16/02/2017,MD -5,D,Phill Bacon,2764.72559,56,75.88,275.70016
16/02/2017,MD -5,D,Frank Ray,4232.71265,82,84.71,469.14154
16/02/2017,MD -5,D,Simon Farrow,4008.09766,72,682.72999,395.70496
17/02/2017,MD -4,D,Adam James,5910.36377,92,464.35001,573.16119
17/02/2017,MD -4,D,James Jones,8048.73584,127,203.26999,852.50946
17/02/2017,MD -4,D,Carl Stewart,8061.68994,104,839.82998,812.60229
17/02/2017,MD -4,D,Robbie Brooks,7108.10687,111,406.15001,740.68085
17/02/2017,MD -4,D,Carl Yates,7351.21143,99,677.23998,751.27209
17/02/2017,MD -4,D,Dan Giggs,7919.48975,120,367.4,849.27267
17/02/2017,MD -4,D,Ricardo Alvo,6910.51509,102,606.92001,713.79493
17/02/2017,MD -4,D,Algo Sanchez,7176.0439,108,484.38,741.76859
17/02/2017,MD -4,D,Kimchee Jones,7755.00159,124,357.77999,871.38687
17/02/2017,MD -4,D,Rafael Menon,7658.17822,120,396.42,812.60679
17/02/2017,MD -4,D,Michael Vikram,7976.99443,120,302.97,730.92279
17/02/2017,MD -4,D,Jimmy Ball,6579.32275,92,367.76001,815.28534
17/02/2017,MD -4,D,Jeff Cordon,6853.22803,99,472.97,719.67668
17/02/2017,MD -4,D,Mark Tim,6866.34277,112,370.35999,801.46528
17/02/2017,MD -4,D,Kyle Lee,5443.35059,41,13.91,562.63074
17/02/2017,MD -4,D,Gavin Cook,4673.3252,79,549.37,543.1441
17/02/2017,MD -4,D,Kent Butcher,5558.69336,92,292.33,584.40662
17/02/2017,MD -4,D,Romeo Nathan ,6248.95752,92,360.40999,737.15606
17/02/2017,MD -4,D,Kamani Kole,8085.1123,129,392.36,883.85233
17/02/2017,MD -4,D,Phill Bacon,8388.32996,101,721.67002,865.03864
17/02/2017,MD -4,D,Frank Ray,6015.53516,89,413.79999,632.32513
17/02/2017,MD -4,D,Steve Reid,6053.62012,92,373.86001,582.77832
19/02/2017,MD -2,D,Adam James,2851.5271,60,47.59,208.48131
19/02/2017,MD -2,D,James Jones,7008.19543,105,290.57001,813.66183
19/02/2017,MD -2,D,Carl Stewart,3514.82275,63,0,333.60237
19/02/2017,MD -2,D,Liam Choo,1662.30005,42,0,121.77311
19/02/2017,MD -2,D,Robbie Brooks,1590.76001,42,0,106.174
19/02/2017,MD -2,D,Carl Yates,3919.7782,76,84.76,337.72752
19/02/2017,MD -2,D,Dan Giggs,3711.80762,69,7.35,302.10847
19/02/2017,MD -2,D,Ricardo Alvo,1872.44421,42,0,137.83789
19/02/2017,MD -2,D,Algo Sanchez,1614.40308,42,0,105.00304
19/02/2017,MD -2,D,Kimchee Jones,4775.38733,89,56.54,472.61096
19/02/2017,MD -2,D,Novak Kilenski,3382.33728,67,19.01,301.12933
19/02/2017,MD -2,D,Rafael Menon,3792.61731,84,5.88,386.832
19/02/2017,MD -2,D,Jimmy Ball,1768.31201,42,0,157.17603
19/02/2017,MD -2,D,Jeff Cordon,3289.06812,68,18.32,291.60605
19/02/2017,MD -2,D,Mark Tim,1417.84265,42,0,106.64073
19/02/2017,MD -2,D,Kyle Lee,2326.11304,29,52.56,242.71458
19/02/2017,MD -2,D,Kent Butcher,1451.67004,42,0,103.74736
19/02/2017,MD -2,D,Romeo Nathan ,1326.13245,42,0,117.45269
19/02/2017,MD -2,D,Kamani Kole,3964.5509,89,0,351.5219
19/02/2017,MD -2,D,Phill Bacon,4279.44458,75,1.5,373.03138
19/02/2017,MD -2,D,Frank Ray,2001.37012,42,0,152.20714
19/02/2017,MD -2,D,Steve Reid,2294.18787,61,10.11,178.9743
20/02/2017,MD -1,D,Adam James,3003.66455,51,101.26,276.32355
20/02/2017,MD -1,D,Carl Stewart,3065.38135,51,10.89,316.56018
20/02/2017,MD -1,D,Robbie Brooks,3634.30609,66,31.7,379.01353
20/02/2017,MD -1,D,Carl Yates,2947.33951,55,40.6,294.79727
20/02/2017,MD -1,D,Dan Giggs,3812.67822,60,35.16,387.24478
20/02/2017,MD -1,D,Ricardo Alvo,3595.42871,58,59.59,339.28612
20/02/2017,MD -1,D,Algo Sanchez,3411.5813,66,12.79,319.8153
20/02/2017,MD -1,D,Kimchee Jones,4040.53735,74,14.61,484.25937
20/02/2017,MD -1,D,Novak Kilenski,3553.78247,66,37.44,354.9671
20/02/2017,MD -1,D,Rafael Menon,4344.32739,69,186.03,474.37984
20/02/2017,MD -1,D,Michael Vikram,3676.13135,66,33.56,348.05689
20/02/2017,MD -1,D,Jimmy Ball,3257.64673,51,24.25,379.20752
20/02/2017,MD -1,D,Jeff Cordon,4030.87183,69,60.16,418.55212
20/02/2017,MD -1,D,Mark Tim,3633.05463,67,58.74,396.37578
20/02/2017,MD -1,D,Kyle Lee,5359.82715,55,747.85002,531.9472
20/02/2017,MD -1,D,Gavin Cook,1400,10,0,0
20/02/2017,MD -1,D,Kent Butcher,4058.448,72,36.74,413.69873
20/02/2017,MD -1,D,Romeo Nathan ,3165.77808,54,4.15,372.26862
20/02/2017,MD -1,D,Kamani Kole,4333.1969,73,45.64,488.04016
20/02/2017,MD -1,D,Phill Bacon,3352.68164,51,80.75,337.86734
20/02/2017,MD -1,D,Frank Ray,4260.69196,66,134.58,404.30235
20/02/2017,MD -1,D,Simon Farrow,5000,26,0,0
20/02/2017,MD -1,D,Steve Reid,3286.12192,55,7.3,295.4285
21/02/2017,MD,D,Adam James,10391.59131,96,693.48998,0
21/02/2017,MD,D,James Jones,5927.12305,76,616.23002,710.13934
21/02/2017,MD,D,Carl Stewart,1724.37207,15,740.33998,199.48518
21/02/2017,MD,D,Robbie Brooks,10576.21289,96,803.54002,0
21/02/2017,MD,D,Carl Yates,1605.12012,15,709.89001,181.72702
21/02/2017,MD,D,Dan Giggs,9982.14893,96,417.80999,0
21/02/2017,MD,D,Ricardo Alvo,11056.61133,96,842.46001,0
21/02/2017,MD,D,Algo Sanchez,2255.51672,20,778.20002,172.34976
21/02/2017,MD,D,Kimchee Jones,5714.60498,76,628.49,692.16309
21/02/2017,MD,D,Novak Kilenski,1636.00012,15,722.5,187.67543
21/02/2017,MD,D,Michael Vikram,1682.67114,15,713.83,147.97652
21/02/2017,MD,D,Jimmy Ball,11622.96826,96,686.84,0
21/02/2017,MD,D,Jeff Cordon,1644.36963,15,681.23,201.48427
21/02/2017,MD,D,Mark Tim,10775.91797,96,798.95001,0
21/02/2017,MD,D,Kent Butcher,5328.91553,76,682.13999,612.12518
21/02/2017,MD,D,Romeo Nathan ,10068.1084,96,332.56,0
21/02/2017,MD,D,Kamani Kole,5329.146,76,591.80001,626.82477
21/02/2017,MD,D,Phill Bacon,12350.56055,96,592.15001,0
21/02/2017,MD,D,Frank Ray,10874.52783,96,665.88998,0
21/02/2017,MD,D,Steve Reid,9447.82813,96,339.24999,0
24/02/2017,MD -4,W,Adam James,8070.64941,102,688.73,790.92261
24/02/2017,MD -4,W,James Jones,9076.98584,136,512.62,972.83035
24/02/2017,MD -4,W,Carl Stewart,9615.84473,111,579.77999,1033.11169
24/02/2017,MD -4,W,Robbie Brooks,8193.05753,106,681.92,864.9561
24/02/2017,MD -4,W,Carl Yates,7757.47852,111,462.51,821.76715
24/02/2017,MD -4,W,Dan Giggs,8602.68799,135,277.54,979.15311
24/02/2017,MD -4,W,Ricardo Alvo,7307.22363,102,444.52999,729.65613
24/02/2017,MD -4,W,Algo Sanchez,7531.62451,102,442.21,774.84698
24/02/2017,MD -4,W,Kimchee Jones,9810.69678,136,239.57,1103.74023
24/02/2017,MD -4,W,Novak Kilenski,8438.88281,102,592.96,909.05249
24/02/2017,MD -4,W,Rafael Menon,10220.64912,130,703.35999,1130.39163
24/02/2017,MD -4,W,Michael Vikram,7664.28857,102,283.52,738.67529
24/02/2017,MD -4,W,Jeff Cordon,8766.90869,111,495.12,904.79051
24/02/2017,MD -4,W,Mark Tim,8576.16113,129,469.27,1027.70131
24/02/2017,MD -4,W,Gavin Cook,3555.59521,163,702.04999,420.35223
24/02/2017,MD -4,W,Romeo Nathan ,7200.8374,102,142.56,863.39417
24/02/2017,MD -4,W,Kamani Kole,9526.94299,136,346.72001,1168.14346
24/02/2017,MD -4,W,Phill Bacon,9478.80566,108,795.09998,984.63475
24/02/2017,MD -4,W,Frank Ray,9923.05957,131,825.92001,1087.26941
24/02/2017,MD -4,W,Simon Farrow,0,210,0,0
24/02/2017,MD -4,W,Steve Reid,7321.25439,102,180.92,722.80829
25/02/2017,MD -3,W,Adam James,5337.54407,85,132.88,511.925
25/02/2017,MD -3,W,James Jones,4721.56055,71,93.09,506.88083
25/02/2017,MD -3,W,Robbie Brooks,3771.92212,64,135.11,386.90645
25/02/2017,MD -3,W,Dan Giggs,5762.43433,109,67.85,571.50647
25/02/2017,MD -3,W,Ricardo Alvo,5324.2168,90,95.81,476.20567
25/02/2017,MD -3,W,Algo Sanchez,3663.4314,62,113.81,409.68484
25/02/2017,MD -3,W,Kimchee Jones,4119.01904,71,94.48,449.60406
25/02/2017,MD -3,W,Novak Kilenski,2897.85327,46,61.25,283.77432
25/02/2017,MD -3,W,Rafael Menon,6383.66553,109,126.78,623.65076
25/02/2017,MD -3,W,Michael Vikram,3832.00049,71,62.49,361.28055
25/02/2017,MD -3,W,Jimmy Ball,4249.18652,71,44.86,579.53278
25/02/2017,MD -3,W,Jeff Cordon,3100.31421,50,102.55,308.69905
25/02/2017,MD -3,W,Gavin Cook,0,120,0,0
25/02/2017,MD -3,W,Romeo Nathan ,4927.91821,91,42.86,608.24564
25/02/2017,MD -3,W,Kamani Kole,4054.46143,71,166.27,501.11444
25/02/2017,MD -3,W,Phill Bacon,5119.15234,85,66.72,522.85818
25/02/2017,MD -3,W,Frank Ray,5420.76221,91,166.05,543.62193
25/02/2017,MD -3,W,Simon Farrow,0,60,0,0
25/02/2017,MD -3,W,Steve Reid,4237.45334,80,65.03,439.71479
27/02/2017,MD -1,W,Adam James,2606.10913,56,70.99,278.2829
27/02/2017,MD -1,W,James Jones,6876.01758,108,263.92,807.73309
27/02/2017,MD -1,W,Carl Stewart,2433.67896,56,0,221.29337
27/02/2017,MD -1,W,Robbie Brooks,2767.06128,56,51.12,288.06223
27/02/2017,MD -1,W,Carl Yates,3222.97192,61,69.38,319.4123
27/02/2017,MD -1,W,Dan Giggs,2456.69214,56,35.36,244.16148
27/02/2017,MD -1,W,Ricardo Alvo,2389.45581,56,59.37,200.32635
27/02/2017,MD -1,W,Algo Sanchez,2394.67456,56,7.1,239.73097
27/02/2017,MD -1,W,Kimchee Jones,5581.92188,108,103.29,609.5972
27/02/2017,MD -1,W,Novak Kilenski,2755.16357,56,51.74,307.53665
27/02/2017,MD -1,W,Rafael Menon,2597.67529,56,50.14,232.47476
27/02/2017,MD -1,W,Michael Vikram,3467.02917,70,55.81,300.10867
27/02/2017,MD -1,W,Jimmy Ball,2782.87158,56,68.04,317.63647
27/02/2017,MD -1,W,Jeff Cordon,2509.4563,56,13.96,225.60129
27/02/2017,MD -1,W,Mark Tim,2431.18262,56,71.87,293.16046
27/02/2017,MD -1,W,Kyle Lee,5325.89063,43,609.90002,621.94922
27/02/2017,MD -1,W,Gavin Cook,4656,20,806.2,160.44347
27/02/2017,MD -1,W,Romeo Nathan ,3190.47263,63,68.75,360.85725
27/02/2017,MD -1,W,Kamani Kole,5916.91235,108,124.16,656.53192
27/02/2017,MD -1,W,Phill Bacon,3003.552,56,83.97,285.99792
27/02/2017,MD -1,W,Frank Ray,3252.42435,63,97.42,299.52106
27/02/2017,MD -1,W,Simon Farrow,4297,14,646.66998,130.17065
27/02/2017,MD -1,W,Steve Reid,2938.79907,63,40.33,282.61673
28/02/2017,MD,W,Adam James,10926.79492,99,1092.02001,0
28/02/2017,MD,W,James Jones,6574.21289,86,667.79001,714.49586
28/02/2017,MD,W,Carl Stewart,6557.71338,51,319.37001,0
28/02/2017,MD,W,Robbie Brooks,11208.20947,99,772.91001,0
28/02/2017,MD,W,Carl Yates,10807.30566,100,470.62001,0
28/02/2017,MD,W,Dan Giggs,1250.27237,8,898.72997,131.28773
28/02/2017,MD,W,Ricardo Alvo,1221.76092,8,883.39002,150.10698
28/02/2017,MD,W,Algo Sanchez,3196.76697,24,579.81,46.52575
28/02/2017,MD,W,Novak Kilenski,9573.29541,79,807.94003,0
28/02/2017,MD,W,Rafael Menon,1299.67535,8,892.02996,148.28537
28/02/2017,MD,W,Michael Vikram,6360.97119,80,1017.78999,618.35516
28/02/2017,MD,W,Jimmy Ball,12374.40771,99,907.60001,0
28/02/2017,MD,W,Jeff Cordon,1232.70999,8,848.92998,141.69896
28/02/2017,MD,W,Mark Tim,11081.87695,99,931.70997,0
28/02/2017,MD,W,Kyle Lee,5916.06738,54,743.90997,734.15369
28/02/2017,MD,W,Romeo Nathan ,10086.97461,100,383.76,0
28/02/2017,MD,W,Kamani Kole,6647.55566,86,1070.63002,810.80988
28/02/2017,MD,W,Phill Bacon,6406.94873,49,614.12001,0
28/02/2017,MD,W,Frank Ray,11962.02686,100,1148.62999,0
28/02/2017,MD,W,Steve Reid,10176.22266,99,412.21999,0
3/03/2017,MD -5,L,James Jones,9674.2251,136,665.83998,998.78662
3/03/2017,MD -5,L,Carl Stewart,7865.25977,99,588.85,853.17749
3/03/2017,MD -5,L,Robbie Brooks,8270.08203,127,611.56998,970.47784
3/03/2017,MD -5,L,Carl Yates,7660.23535,99,564.92001,839.06818
3/03/2017,MD -5,L,Dan Giggs,9282.41211,131,370.48,1003.5878
3/03/2017,MD -5,L,Ricardo Alvo,7678.18115,99,540.74,720.77478
3/03/2017,MD -5,L,Algo Sanchez,7353.22607,99,653.05999,812.61731
3/03/2017,MD -5,L,Kimchee Jones,9444.37292,136,725.02999,1026.70987
3/03/2017,MD -5,L,Rafael Menon,10349.67676,129,687.81999,1145.06949
3/03/2017,MD -5,L,Michael Vikram,8344.40625,116,412.54,822.86455
3/03/2017,MD -5,L,Jimmy Ball,7585.72119,99,516.67998,966.51874
3/03/2017,MD -5,L,Jeff Cordon,6605.32324,99,495.76001,716.01166
3/03/2017,MD -5,L,Mark Tim,6397.24609,99,662.60001,755.96088
3/03/2017,MD -5,L,Kyle Lee,7795.13818,99,549.55999,784.0116
3/03/2017,MD -5,L,Gavin Cook,2547.61914,41,98.9,359.37057
3/03/2017,MD -5,L,Romeo Nathan ,7206.59473,99,295.12,922.39594
3/03/2017,MD -5,L,Kamani Kole,8239.74854,127,433.27001,875.66
3/03/2017,MD -5,L,Phill Bacon,8042.73291,99,715.07,813.80328
3/03/2017,MD -5,L,Frank Ray,7975.97095,119,639.14999,916.68446
3/03/2017,MD -5,L,Simon Farrow,3391.19214,48,293.61,423.54837
3/03/2017,MD -5,L,Steve Reid,3937.81519,62,165.58,405.36502
4/03/2017,MD -4,L,James Jones,7661.64893,111,309.40999,867.92904
4/03/2017,MD -4,L,Carl Stewart,7630.24023,93,450.23,827.73044
4/03/2017,MD -4,L,Carl Yates,7088.12109,93,684.42999,737.29136
4/03/2017,MD -4,L,Dan Giggs,8140.52832,112,140.53,916.02721
4/03/2017,MD -4,L,Ricardo Alvo,7541.56543,105,376.39,759.13692
4/03/2017,MD -4,L,Algo Sanchez,7544.65234,111,302.31999,842.52966
4/03/2017,MD -4,L,Kimchee Jones,8665.04346,114,308.92,982.43907
4/03/2017,MD -4,L,Novak Kilenski,7733.09735,111,317.03,922.12003
4/03/2017,MD -4,L,Rafael Menon,8625.17041,112,296.81001,918.38928
4/03/2017,MD -4,L,Michael Vikram,7275.29688,105,138.71,704.47623
4/03/2017,MD -4,L,Jimmy Ball,6966.19531,90,120.58,891.34265
4/03/2017,MD -4,L,Jeff Cordon,6318.63233,90,294.24999,646.54274
4/03/2017,MD -4,L,Mark Tim,6259.87982,111,200.21001,752.41454
4/03/2017,MD -4,L,Kyle Lee,7968.57764,91,559.79,816.38354
4/03/2017,MD -4,L,Gavin Cook,5249.37646,72,55.03,597.48224
4/03/2017,MD -4,L,Romeo Nathan ,7370.11768,106,73.92,942.31189
4/03/2017,MD -4,L,Kamani Kole,8420.875,118,112.83,965.98894
4/03/2017,MD -4,L,Phill Bacon,7805.30975,93,623.55,871.05446
4/03/2017,MD -4,L,Frank Ray,5386.24658,72,286.45,611.39807
4/03/2017,MD -4,L,Simon Farrow,5376.46436,53,662.50001,589.63763
4/03/2017,MD -4,L,Steve Reid,6774.91846,98,100.08,635.93674
6/03/2017,MD -2,L,James Jones,8082.7124,106,922.01,828.16016
6/03/2017,MD -2,L,Carl Stewart,497.08801,22,0,31.85606
6/03/2017,MD -2,L,Robbie Brooks,520.53302,21,0,36.77556
6/03/2017,MD -2,L,Carl Yates,1145.47888,36,0,81.44205
6/03/2017,MD -2,L,Dan Giggs,1499.21434,41,0,129.03219
6/03/2017,MD -2,L,Ricardo Alvo,1021.12329,36,0,74.23399
6/03/2017,MD -2,L,Algo Sanchez,491.51804,23,0,27.63954
6/03/2017,MD -2,L,Kimchee Jones,8199.41992,106,847.11003,870.06488
6/03/2017,MD -2,L,Novak Kilenski,379.50931,18,0,30.60297
6/03/2017,MD -2,L,Rafael Menon,3100.52643,65,75.25,319.67496
6/03/2017,MD -2,L,Michael Vikram,993.50122,36,0,86.21741
6/03/2017,MD -2,L,Jimmy Ball,666.67206,21,0,66.21076
6/03/2017,MD -2,L,Jeff Cordon,1402.36633,43,0,118.1116
6/03/2017,MD -2,L,Mark Tim,398.76404,21,0,30.28238
6/03/2017,MD -2,L,Kyle Lee,8065.28955,106,804.46997,812.59711
6/03/2017,MD -2,L,Gavin Cook,4696.99231,80,329.59,572.91798
6/03/2017,MD -2,L,Romeo Nathan ,1189.61218,36,4.67,111.50388
6/03/2017,MD -2,L,Kamani Kole,7805.77637,106,897.69998,850.11646
6/03/2017,MD -2,L,Phill Bacon,629.81506,14,11.56,51.41827
6/03/2017,MD -2,L,Frank Ray,591.32904,21,0,40.21094
6/03/2017,MD -2,L,Simon Farrow,4442.42273,93,229.01,469.24389
6/03/2017,MD -2,L,Steve Reid,1365.38513,36,2.53,119.01912
7/03/2017,MD -1,L,Adam James,1556.63965,13,0,169.38658
7/03/2017,MD -1,L,James Jones,5519.62,112,28.58,0
7/03/2017,MD -1,L,Carl Stewart,2830.28027,56,31.32,280.74356
7/03/2017,MD -1,L,Robbie Brooks,2898.03931,56,88.03,327.54681
7/03/2017,MD -1,L,Carl Yates,2914.65503,56,38.84,297.18436
7/03/2017,MD -1,L,Dan Giggs,2964.26831,56,40.37,295.953
7/03/2017,MD -1,L,Ricardo Alvo,2516.56104,56,27.78,234.99802
7/03/2017,MD -1,L,Algo Sanchez,2612.24414,56,43.01,246.99274
7/03/2017,MD -1,L,Kimchee Jones,2688.90283,56,86.72,277.1658
7/03/2017,MD -1,L,Novak Kilenski,2824.61792,56,64.27,292.47015
7/03/2017,MD -1,L,Rafael Menon,2653.80396,56,16.86,279.46213
7/03/2017,MD -1,L,Michael Vikram,2686.10913,56,23.28,234.64893
7/03/2017,MD -1,L,Jimmy Ball,3128.88208,56,56.18,373.53278
7/03/2017,MD -1,L,Jeff Cordon,2431.3501,56,28.47,239.13788
7/03/2017,MD -1,L,Mark Tim,2707.58716,56,90.88,303.85602
7/03/2017,MD -1,L,Kyle Lee,3126.20776,56,46.06,289.54379
7/03/2017,MD -1,L,Gavin Cook,3085.78833,56,56.09,305.09186
7/03/2017,MD -1,L,Romeo Nathan ,2814.7229,56,24.98,348.46228
7/03/2017,MD -1,L,Kamani Kole,2452.04565,56,5.84,269.3981
7/03/2017,MD -1,L,Phill Bacon,3345.89819,56,29.69,354.24362
7/03/2017,MD -1,L,Frank Ray,2904.30029,56,36.04,291.38461
7/03/2017,MD -1,L,Steve Reid,2854.79712,56,48.41,271.09073
8/03/2017,MD,L,Adam James,7669.40918,74,504.02,0
8/03/2017,MD,L,James Jones,4231.7124,66,70.01,537.34711
8/03/2017,MD,L,Carl Stewart,1316.25537,12,394.63,137.49527
8/03/2017,MD,L,Robbie Brooks,7981.45728,74,495.74,0
8/03/2017,MD,L,Carl Yates,3578.60718,31,144.00001,0
8/03/2017,MD,L,Dan Giggs,10045.57031,100,540.8,0
8/03/2017,MD,L,Ricardo Alvo,1254.97717,12,332.44,136.02818
8/03/2017,MD,L,Algo Sanchez,3364.67041,26,284.51,0
8/03/2017,MD,L,Kimchee Jones,3632.99268,66,69.62,522.08459
8/03/2017,MD,L,Novak Kilenski,7418.63843,64,341.35999,0
8/03/2017,MD,L,Michael Vikram,1298.37708,12,391.13,102.68159
8/03/2017,MD,L,Jimmy Ball,11864.97119,100,595.04,0
8/03/2017,MD,L,Jeff Cordon,2792.84106,26,241.63,0
8/03/2017,MD,L,Mark Tim,9886.05908,100,762.36001,0
8/03/2017,MD,L,Kyle Lee,4176.51807,66,67.05,502.05313
8/03/2017,MD,L,Romeo Nathan ,9710.80518,100,403.21,0
8/03/2017,MD,L,Kamani Kole,3755.51123,66,11.98,564.37262
8/03/2017,MD,L,Phill Bacon,12898.36865,100,817.44999,0
8/03/2017,MD,L,Frank Ray,10607.64746,100,825.23997,0
8/03/2017,MD,L,Simon Farrow,4690.80811,81,599.55002,612.25531
8/03/2017,MD,L,Steve Reid,10185.36133,100,551.74999,0
13/03/2017,MD -1,L,Adam James,3238.13208,68,65.12,310.41521
13/03/2017,MD -1,L,Carl Stewart,2559.28613,60,31.22,270.38556
13/03/2017,MD -1,L,Robbie Brooks,3216.00513,71,52.01,338.79365
13/03/2017,MD -1,L,Dan Giggs,3152.80008,65,37.12,310.51939
13/03/2017,MD -1,L,Ricardo Alvo,2071.25684,60,13.98,203.87065
13/03/2017,MD -1,L,Algo Sanchez,2229.354,60,30.56,232.79312
13/03/2017,MD -1,L,Kimchee Jones,2634.69897,60,51.1,277.35434
13/03/2017,MD -1,L,Novak Kilenski,3191.47302,71,30.25,333.59558
13/03/2017,MD -1,L,Rafael Menon,2443.89014,60,10.29,254.93883
13/03/2017,MD -1,L,Michael Vikram,2342.52905,60,19.26,228.41779
13/03/2017,MD -1,L,Jimmy Ball,2960.05176,60,19.61,364.70071
13/03/2017,MD -1,L,Jeff Cordon,2520.64746,60,38.44,263.1658
13/03/2017,MD -1,L,Mark Tim,2925.36902,71,55.44,337.34331
13/03/2017,MD -1,L,Gavin Cook,5610.70459,105,254.17,637.48666
13/03/2017,MD -1,L,Kent Maan,2747.29907,26,1045.77997,262.25565
13/03/2017,MD -1,L,Romeo Nathan ,3801.00928,76,72.73,473.58377
13/03/2017,MD -1,L,Phill Bacon,3814.21802,72,91.59,382.88931
13/03/2017,MD -1,L,Frank Ray,3610.41669,75,67.59,418.13124
13/03/2017,MD -1,L,Steve Reid,2859.11108,66,61.7,264.54452
14/03/2017,MD,L,Adam James,7111.0874,67,621.28001,0
14/03/2017,MD,L,James Jones,2317.18701,37,18.82,273.28568
14/03/2017,MD,L,Carl Stewart,2940.55664,19,216.25,0
14/03/2017,MD,L,Robbie Brooks,10940.36768,101,897.94002,0
14/03/2017,MD,L,Dan Giggs,10195.96924,101,614.87,0
14/03/2017,MD,L,Ricardo Alvo,1898.58606,16,486.94,204.12772
14/03/2017,MD,L,Algo Sanchez,4500.93164,34,588.09999,0
14/03/2017,MD,L,Novak Kilenski,7833.59204,67,535.82001,0
14/03/2017,MD,L,Rafael Menon,2008.47803,16,629.58002,194.47522
14/03/2017,MD,L,Michael Vikram,1976.70203,16,703.69,171.11623
14/03/2017,MD,L,Jimmy Ball,12059.42188,101,873.10999,0
14/03/2017,MD,L,Jeff Cordon,3968.78931,34,463.73999,0
14/03/2017,MD,L,Mark Tim,8550.58447,82,819.43,0
14/03/2017,MD,L,Gavin Cook,7040.27441,97,811.92999,892.31116
14/03/2017,MD,L,Kent Maan,5036.87695,41,268.35999,541.02441
14/03/2017,MD,L,Romeo Nathan ,10851.08936,101,777.07999,0
14/03/2017,MD,L,Kamani Kole,1971.33813,37,0,239.47105
14/03/2017,MD,L,Phill Bacon,13147.94531,101,1050.19996,0
14/03/2017,MD,L,Frank Ray,10853.36719,101,1045.45003,0
14/03/2017,MD,L,Simon Farrow,4999.35693,50,723.56998,515.41492
14/03/2017,MD,L,Steve Reid,10255.9292,101,634.39999,0
1/04/2017,MD -2,W,Carl Stewart,4393.97705,72,121.74,429.31674
1/04/2017,MD -2,W,Robbie Brooks,4085.84692,72,200.67,406.50723
1/04/2017,MD -2,W,Dan Giggs,5673.05005,105,114.64,619.42206
1/04/2017,MD -2,W,Ricardo Alvo,4840.00311,93,228.26,461.6525
1/04/2017,MD -2,W,Algo Sanchez,4896.24268,72,349.96,458.17838
1/04/2017,MD -2,W,Novak Kilenski,4927.77124,90,312.96999,559.60665
1/04/2017,MD -2,W,Rafael Menon,4232.48291,72,149.69,435.62268
1/04/2017,MD -2,W,Michael Vikram,5092.64917,95,63.32,508.72399
1/04/2017,MD -2,W,Jimmy Ball,4263.37363,77,142.13999,497.22528
1/04/2017,MD -2,W,Jeff Cordon,4288.93555,72,178.26,439.5965
1/04/2017,MD -2,W,Mark Tim,4669.67651,92,228.26,549.94879
1/04/2017,MD -2,W,Gavin Cook,5291.45605,89,272.28999,561.03133
1/04/2017,MD -2,W,Romeo Nathan ,4507.9292,89,31.1,514.67362
1/04/2017,MD -2,W,Phill Bacon,5230.81104,89,211.86,541.46339
1/04/2017,MD -2,W,Frank Ray,3816.05103,72,96.11,398.56763
1/04/2017,MD -2,W,Steve Reid,4237.40137,89,49.67,402.55221
2/04/2017,MD -1,W,Adam James,4734.12207,57,809.41001,483.33813
2/04/2017,MD -1,W,Liam Choo,6425.52966,108,1272.24004,708.75087
2/04/2017,MD -1,W,Robbie Brooks,1942.30762,43,16.62,228.79588
2/04/2017,MD -1,W,Ricardo Alvo,2365.70633,53,63.5,241.18053
2/04/2017,MD -1,W,Algo Sanchez,1944.57227,43,11.81,214.77432
2/04/2017,MD -1,W,Kimchee Jones,4430.55969,92,38.27,599.11441
2/04/2017,MD -1,W,Novak Kilenski,2562.94055,54,69.8,300.18629
2/04/2017,MD -1,W,Rafael Menon,2629.39813,51,92.93,289.42574
2/04/2017,MD -1,W,Michael Vikram,3246.08752,74,2.34,317.28279
2/04/2017,MD -1,W,Jeff Cordon,2050.26001,43,53.92,226.14676
2/04/2017,MD -1,W,Mark Tim,1797.6311,43,64.61,240.18863
2/04/2017,MD -1,W,Kim Khoo,5201.56543,45,46.98,636.00726
2/04/2017,MD -1,W,Gavin Cook,2374.40625,53,30.38,261.96559
2/04/2017,MD -1,W,Kent Maan,4197.36694,92,127.85,478.32051
2/04/2017,MD -1,W,Romeo Nathan ,2126.74939,53,4.69,283.46746
2/04/2017,MD -1,W,Phill Bacon,2527.87726,53,31.94,269.66919
2/04/2017,MD -1,W,Simon Farrow,3915.34326,91,61.14,442.00037
2/04/2017,MD -1,W,Steve Reid,2391.36353,56,5.95,256.50951
3/04/2017,MD,W,Adam James,5649.49072,45,773.47998,491.32724
3/04/2017,MD,W,James Jones,6439.07324,91,808.57002,694.63324
3/04/2017,MD,W,Carl Stewart,2394.0791,19,901.83999,227.74898
3/04/2017,MD,W,Liam Choo,6065.65771,91,667.87001,646.61243
3/04/2017,MD,W,Robbie Brooks,11163.01709,98,1031.27999,0
3/04/2017,MD,W,Dan Giggs,1855.80505,16,784.97996,202.09746
3/04/2017,MD,W,Ricardo Alvo,10911.26074,98,752.6,0
3/04/2017,MD,W,Algo Sanchez,10659.23779,79,857.33,0
3/04/2017,MD,W,Kimchee Jones,1818.93811,16,787.57002,223.37788
3/04/2017,MD,W,Rafael Menon,11675.13623,98,894.74,0
3/04/2017,MD,W,Michael Vikram,1972.05212,16,799.99002,172.41771
3/04/2017,MD,W,Jimmy Ball,12169.99902,98,901.50999,0
3/04/2017,MD,W,Mark Tim,10229.42236,98,922.98999,0
3/04/2017,MD,W,Kim Khoo,2449.45605,46,28.07,314.17484
3/04/2017,MD,W,Gavin Cook,4395.73023,35,1058.97,200.56256
3/04/2017,MD,W,Kent Maan,5979.77197,91,844.29997,653.24048
3/04/2017,MD,W,Romeo Nathan ,10245.22314,98,345.26,0
3/04/2017,MD,W,Phill Bacon,12689.17285,98,984.98999,0
3/04/2017,MD,W,Frank Ray,5654.36597,46,1014.54998,190.85849
3/04/2017,MD,W,Simon Farrow,5310.00439,82,828.84997,612.74957
3/04/2017,MD,W,Steve Reid,10203.02588,98,392.27,0
